<svg xmlns="http://www.w3.org/2000/svg" width="23.256" height="25.758" viewBox="0 0 23.256 25.758">
  <defs>
    <style>
      .cls-1 {
        fill: #030504;
      }
    </style>
  </defs>
  <g id="Group_511" data-name="Group 511" transform="translate(0)">
    <rect id="Rectangle_60" data-name="Rectangle 60" class="cls-1" width="23.256" height="0.985" transform="translate(0 24.772)"/>
    <path id="Path_1647" data-name="Path 1647" class="cls-1" d="M561.785,265.462V252.487l7.489-3.219,3.285,2.4v13.8h2.715v-1.051h-1.73V251.436l-4.27-3.186-8.475,3.777v12.384h-2.3v1.051h3.285Z" transform="translate(-558.5 -241.347)"/>
    <path id="Path_1648" data-name="Path 1648" class="cls-1" d="M623.486,218.776V200.031l-.955-1.269.005,0-2.272-3.046-11.757,4.7v3.224l.951-.985V201.09l10.427-4.166,2.548,3.063v19.84h2.759v-1.051Z" transform="translate(-601.937 -195.711)"/>
    <path id="Path_1649" data-name="Path 1649" class="cls-1" d="M599.528,281.5l-3.777,1.646v2.1l3.777-1.577Z" transform="translate(-590.856 -270.228)"/>
    <path id="Path_1650" data-name="Path 1650" class="cls-1" d="M599.528,318.75l-3.777,1.182v2.037l3.777-1.182Z" transform="translate(-590.856 -302.584)"/>
    <path id="Path_1651" data-name="Path 1651" class="cls-1" d="M595.75,353.661h3.777V351l-3.777,1.117Z" transform="translate(-590.856 -330.596)"/>
    <path id="Path_1652" data-name="Path 1652" class="cls-1" d="M642.544,284.137V270.768L641,269.75v14.387Z" transform="translate(-630.16 -260.022)"/>
    <path id="Path_1653" data-name="Path 1653" class="cls-1" d="M694,215.5v21.515h1.659V217.6Z" transform="translate(-676.196 -212.9)"/>
  </g>
</svg>
