[
    {
        "mask": "+247-####",
        "cc": "AC",
        "name": "Остров Вознесения",
        "desc": ""
    },
    {
        "mask": "+376-###-###",
        "cc": "AD",
        "name": "Андорра",
        "desc": ""
    },
    {
        "mask": "+971-5#-###-####",
        "cc": "AE",
        "name": "Объединенные Арабские Эмираты",
        "desc": "мобильные"
    },
    {
        "mask": "+971-#-###-####",
        "cc": "AE",
        "name": "Объединенные Арабские Эмираты",
        "desc": ""
    },
    {
        "mask": "+93-##-###-####",
        "cc": "AF",
        "name": "Афганистан",
        "desc": ""
    },
    {
        "mask": "+1(268)###-####",
        "cc": "AG",
        "name": "Антигуа и Барбуда",
        "desc": ""
    },
    {
        "mask": "+1(264)###-####",
        "cc": "AI",
        "name": "Ангилья",
        "desc": ""
    },
    {
        "mask": "+355(###)###-###",
        "cc": "AL",
        "name": "Албания",
        "desc": ""
    },
    {
        "mask": "+374-##-###-###",
        "cc": "AM",
        "name": "Армения",
        "desc": ""
    },
    {
        "mask": "+599-###-####",
        "cc": "AN",
        "name": "Карибские Нидерланды",
        "desc": ""
    },
    {
        "mask": "+599-###-####",
        "cc": "AN",
        "name": "Нидерландские Антильские острова",
        "desc": ""
    },
    {
        "mask": "+599-9###-####",
        "cc": "AN",
        "name": "Нидерландские Антильские острова",
        "desc": "Кюрасао"
    },
    {
        "mask": "+244(###)###-###",
        "cc": "AO",
        "name": "Ангола",
        "desc": ""
    },
    {
        "mask": "+672-1##-###",
        "cc": "AQ",
        "name": "Австралийская антарктическая база",
        "desc": ""
    },
    {
        "mask": "+54(###)###-####",
        "cc": "AR",
        "name": "Аргентина",
        "desc": ""
    },
    {
        "mask": "+1(684)###-####",
        "cc": "AS",
        "name": "Американское Самоа",
        "desc": ""
    },
    {
        "mask": "+43(###)###-####",
        "cc": "AT",
        "name": "Австрия",
        "desc": ""
    },
    {
        "mask": "+61-#-####-####",
        "cc": "AU",
        "name": "Австралия",
        "desc": ""
    },
    {
        "mask": "+297-###-####",
        "cc": "AW",
        "name": "Аруба",
        "desc": ""
    },
    {
        "mask": "+994-##-###-##-##",
        "cc": "AZ",
        "name": "Азербайджан",
        "desc": ""
    },
    {
        "mask": "+387-##-#####",
        "cc": "BA",
        "name": "Босния и Герцеговина",
        "desc": ""
    },
    {
        "mask": "+387-##-####",
        "cc": "BA",
        "name": "Босния и Герцеговина",
        "desc": ""
    },
    {
        "mask": "+1(246)###-####",
        "cc": "BB",
        "name": "Барбадос",
        "desc": ""
    },
    {
        "mask": "+880-##-###-###",
        "cc": "BD",
        "name": "Бангладеш",
        "desc": ""
    },
    {
        "mask": "+32(###)###-###",
        "cc": "BE",
        "name": "Бельгия",
        "desc": ""
    },
    {
        "mask": "+226-##-##-####",
        "cc": "BF",
        "name": "Буркина Фасо",
        "desc": ""
    },
    {
        "mask": "+359(###)###-###",
        "cc": "BG",
        "name": "Болгария",
        "desc": ""
    },
    {
        "mask": "+973-####-####",
        "cc": "BH",
        "name": "Бахрейн",
        "desc": ""
    },
    {
        "mask": "+257-##-##-####",
        "cc": "BI",
        "name": "Бурунди",
        "desc": ""
    },
    {
        "mask": "+229-##-##-####",
        "cc": "BJ",
        "name": "Бенин",
        "desc": ""
    },
    {
        "mask": "+1(441)###-####",
        "cc": "BM",
        "name": "Бермудские острова",
        "desc": ""
    },
    {
        "mask": "+673-###-####",
        "cc": "BN",
        "name": "Бруней-Даруссалам",
        "desc": ""
    },
    {
        "mask": "+591-#-###-####",
        "cc": "BO",
        "name": "Боливия",
        "desc": ""
    },
    {
        "mask": "+55-##-####-####",
        "cc": "BR",
        "name": "Бразилия",
        "desc": ""
    },
    {
        "mask": "+1(242)###-####",
        "cc": "BS",
        "name": "Багамские Острова",
        "desc": ""
    },
    {
        "mask": "+975-17-###-###",
        "cc": "BT",
        "name": "Бутан",
        "desc": ""
    },
    {
        "mask": "+975-#-###-###",
        "cc": "BT",
        "name": "Бутан",
        "desc": ""
    },
    {
        "mask": "+267-##-###-###",
        "cc": "BW",
        "name": "Ботсвана",
        "desc": ""
    },
    {
        "mask": "+375(##)###-##-##",
        "cc": "BY",
        "name": "Беларусь (Белоруссия)",
        "desc": ""
    },
    {
        "mask": "+501-###-####",
        "cc": "BZ",
        "name": "Белиз",
        "desc": ""
    },
    {
        "mask": "+243(###)###-###",
        "cc": "CD",
        "name": "Дем. Респ. Конго (Киншаса)",
        "desc": ""
    },
    {
        "mask": "+236-##-##-####",
        "cc": "CF",
        "name": "Центральноафриканская Республика",
        "desc": ""
    },
    {
        "mask": "+242-##-###-####",
        "cc": "CG",
        "name": "Конго (Браззавиль)",
        "desc": ""
    },
    {
        "mask": "+41-##-###-####",
        "cc": "CH",
        "name": "Швейцария",
        "desc": ""
    },
    {
        "mask": "+225-##-###-###",
        "cc": "CI",
        "name": "Кот-д’Ивуар",
        "desc": ""
    },
    {
        "mask": "+682-##-###",
        "cc": "CK",
        "name": "Острова Кука",
        "desc": ""
    },
    {
        "mask": "+56-#-####-####",
        "cc": "CL",
        "name": "Чили",
        "desc": ""
    },
    {
        "mask": "+237-####-####",
        "cc": "CM",
        "name": "Камерун",
        "desc": ""
    },
    {
        "mask": "+86(###)####-####",
        "cc": "CN",
        "name": "Китайская Н.Р.",
        "desc": ""
    },
    {
        "mask": "+86(###)####-###",
        "cc": "CN",
        "name": "Китайская Н.Р.",
        "desc": ""
    },
    {
        "mask": "+86-##-#####-#####",
        "cc": "CN",
        "name": "Китайская Н.Р.",
        "desc": ""
    },
    {
        "mask": "+57(###)###-####",
        "cc": "CO",
        "name": "Колумбия",
        "desc": ""
    },
    {
        "mask": "+506-####-####",
        "cc": "CR",
        "name": "Коста-Рика",
        "desc": ""
    },
    {
        "mask": "+53-#-###-####",
        "cc": "CU",
        "name": "Куба",
        "desc": ""
    },
    {
        "mask": "+238(###)##-##",
        "cc": "CV",
        "name": "Кабо-Верде",
        "desc": ""
    },
    {
        "mask": "+599-###-####",
        "cc": "CW",
        "name": "Кюрасао",
        "desc": ""
    },
    {
        "mask": "+357-##-###-###",
        "cc": "CY",
        "name": "Кипр",
        "desc": ""
    },
    {
        "mask": "+420(###)###-###",
        "cc": "CZ",
        "name": "Чехия",
        "desc": ""
    },
    {
        "mask": "+49(####)###-####",
        "cc": "DE",
        "name": "Германия",
        "desc": ""
    },
    {
        "mask": "+49(###)###-####",
        "cc": "DE",
        "name": "Германия",
        "desc": ""
    },
    {
        "mask": "+49(###)##-####",
        "cc": "DE",
        "name": "Германия",
        "desc": ""
    },
    {
        "mask": "+49(###)##-###",
        "cc": "DE",
        "name": "Германия",
        "desc": ""
    },
    {
        "mask": "+49(###)##-##",
        "cc": "DE",
        "name": "Германия",
        "desc": ""
    },
    {
        "mask": "+49-###-###",
        "cc": "DE",
        "name": "Германия",
        "desc": ""
    },
    {
        "mask": "+253-##-##-##-##",
        "cc": "DJ",
        "name": "Джибути",
        "desc": ""
    },
    {
        "mask": "+45-##-##-##-##",
        "cc": "DK",
        "name": "Дания",
        "desc": ""
    },
    {
        "mask": "+1(767)###-####",
        "cc": "DM",
        "name": "Доминика",
        "desc": ""
    },
    {
        "mask": "+1(809)###-####",
        "cc": "DO",
        "name": "Доминиканская Республика",
        "desc": ""
    },
    {
        "mask": "+1(829)###-####",
        "cc": "DO",
        "name": "Доминиканская Республика",
        "desc": ""
    },
    {
        "mask": "+1(849)###-####",
        "cc": "DO",
        "name": "Доминиканская Республика",
        "desc": ""
    },
    {
        "mask": "+213-##-###-####",
        "cc": "DZ",
        "name": "Алжир",
        "desc": ""
    },
    {
        "mask": "+593-##-###-####",
        "cc": "EC",
        "name": "Эквадор ",
        "desc": "мобильные"
    },
    {
        "mask": "+593-#-###-####",
        "cc": "EC",
        "name": "Эквадор",
        "desc": ""
    },
    {
        "mask": "+372-####-####",
        "cc": "EE",
        "name": "Эстония ",
        "desc": "мобильные"
    },
    {
        "mask": "+372-###-####",
        "cc": "EE",
        "name": "Эстония",
        "desc": ""
    },
    {
        "mask": "+20(###)###-####",
        "cc": "EG",
        "name": "Египет",
        "desc": ""
    },
    {
        "mask": "+291-#-###-###",
        "cc": "ER",
        "name": "Эритрея",
        "desc": ""
    },
    {
        "mask": "+34(###)###-###",
        "cc": "ES",
        "name": "Испания",
        "desc": ""
    },
    {
        "mask": "+251-##-###-####",
        "cc": "ET",
        "name": "Эфиопия",
        "desc": ""
    },
    {
        "mask": "+358(###)###-##-##",
        "cc": "FI",
        "name": "Финляндия",
        "desc": ""
    },
    {
        "mask": "+679-##-#####",
        "cc": "FJ",
        "name": "Фиджи",
        "desc": ""
    },
    {
        "mask": "+500-#####",
        "cc": "FK",
        "name": "Фолклендские острова",
        "desc": ""
    },
    {
        "mask": "+691-###-####",
        "cc": "FM",
        "name": "Ф.Ш. Микронезии",
        "desc": ""
    },
    {
        "mask": "+298-###-###",
        "cc": "FO",
        "name": "Фарерские острова",
        "desc": ""
    },
    {
        "mask": "+262-#####-####",
        "cc": "FR",
        "name": "Майотта",
        "desc": ""
    },
    {
        "mask": "+33(###)###-###",
        "cc": "FR",
        "name": "Франция",
        "desc": ""
    },
    {
        "mask": "+508-##-####",
        "cc": "FR",
        "name": "Сен-Пьер и Микелон",
        "desc": ""
    },
    {
        "mask": "+590(###)###-###",
        "cc": "FR",
        "name": "Гваделупа",
        "desc": ""
    },
    {
        "mask": "+241-#-##-##-##",
        "cc": "GA",
        "name": "Габон",
        "desc": ""
    },
    {
        "mask": "+1(473)###-####",
        "cc": "GD",
        "name": "Гренада",
        "desc": ""
    },
    {
        "mask": "+995(###)###-###",
        "cc": "GE",
        "name": "Грузия",
        "desc": ""
    },
    {
        "mask": "+594-#####-####",
        "cc": "GF",
        "name": "Фр. Гвиана",
        "desc": ""
    },
    {
        "mask": "+233(###)###-###",
        "cc": "GH",
        "name": "Гана",
        "desc": ""
    },
    {
        "mask": "+350-###-#####",
        "cc": "GI",
        "name": "Гибралтар",
        "desc": ""
    },
    {
        "mask": "+299-##-##-##",
        "cc": "GL",
        "name": "Гренландия",
        "desc": ""
    },
    {
        "mask": "+220(###)##-##",
        "cc": "GM",
        "name": "Гамбия",
        "desc": ""
    },
    {
        "mask": "+224-##-###-###",
        "cc": "GN",
        "name": "Гвинея",
        "desc": ""
    },
    {
        "mask": "+240-##-###-####",
        "cc": "GQ",
        "name": "Экваториальная Гвинея",
        "desc": ""
    },
    {
        "mask": "+30(###)###-####",
        "cc": "GR",
        "name": "Греция",
        "desc": ""
    },
    {
        "mask": "+502-#-###-####",
        "cc": "GT",
        "name": "Гватемала",
        "desc": ""
    },
    {
        "mask": "+1(671)###-####",
        "cc": "GU",
        "name": "Гуам",
        "desc": ""
    },
    {
        "mask": "+245-#-######",
        "cc": "GW",
        "name": "Гвинея-Бисау",
        "desc": ""
    },
    {
        "mask": "+592-###-####",
        "cc": "GY",
        "name": "Гайана",
        "desc": ""
    },
    {
        "mask": "+852-####-####",
        "cc": "HK",
        "name": "Гонконг",
        "desc": ""
    },
    {
        "mask": "+504-####-####",
        "cc": "HN",
        "name": "Гондурас",
        "desc": ""
    },
    {
        "mask": "+385-##-###-###",
        "cc": "HR",
        "name": "Хорватия",
        "desc": ""
    },
    {
        "mask": "+509-##-##-####",
        "cc": "HT",
        "name": "Гаити",
        "desc": ""
    },
    {
        "mask": "+36(###)###-###",
        "cc": "HU",
        "name": "Венгрия",
        "desc": ""
    },
    {
        "mask": "+62(8##)###-####",
        "cc": "ID",
        "name": "Индонезия ",
        "desc": "мобильные"
    },
    {
        "mask": "+62-##-###-##",
        "cc": "ID",
        "name": "Индонезия",
        "desc": ""
    },
    {
        "mask": "+62-##-###-###",
        "cc": "ID",
        "name": "Индонезия",
        "desc": ""
    },
    {
        "mask": "+62-##-###-####",
        "cc": "ID",
        "name": "Индонезия",
        "desc": ""
    },
    {
        "mask": "+62(8##)###-###",
        "cc": "ID",
        "name": "Индонезия ",
        "desc": "мобильные"
    },
    {
        "mask": "+62(8##)###-##-###",
        "cc": "ID",
        "name": "Индонезия ",
        "desc": "мобильные"
    },
    {
        "mask": "+353(###)###-###",
        "cc": "IE",
        "name": "Ирландия",
        "desc": ""
    },
    {
        "mask": "+972-5#-###-####",
        "cc": "IL",
        "name": "Израиль ",
        "desc": "мобильные"
    },
    {
        "mask": "+972-#-###-####",
        "cc": "IL",
        "name": "Израиль",
        "desc": ""
    },
    {
        "mask": "+91(####)###-###",
        "cc": "IN",
        "name": "Индия",
        "desc": ""
    },
    {
        "mask": "+246-###-####",
        "cc": "IO",
        "name": "Диего-Гарсия",
        "desc": ""
    },
    {
        "mask": "+964(###)###-####",
        "cc": "IQ",
        "name": "Ирак",
        "desc": ""
    },
    {
        "mask": "+98(###)###-####",
        "cc": "IR",
        "name": "Иран",
        "desc": ""
    },
    {
        "mask": "+354-###-####",
        "cc": "IS",
        "name": "Исландия",
        "desc": ""
    },
    {
        "mask": "+39(###)####-###",
        "cc": "IT",
        "name": "Италия",
        "desc": ""
    },
    {
        "mask": "+1(876)###-####",
        "cc": "JM",
        "name": "Ямайка",
        "desc": ""
    },
    {
        "mask": "+962-#-####-####",
        "cc": "JO",
        "name": "Иордания",
        "desc": ""
    },
    {
        "mask": "+81-##-####-####",
        "cc": "JP",
        "name": "Япония ",
        "desc": "мобильные"
    },
    {
        "mask": "+81(###)###-###",
        "cc": "JP",
        "name": "Япония",
        "desc": ""
    },
    {
        "mask": "+254-###-######",
        "cc": "KE",
        "name": "Кения",
        "desc": ""
    },
    {
        "mask": "+996(###)###-###",
        "cc": "KG",
        "name": "Киргизия",
        "desc": ""
    },
    {
        "mask": "+855-##-###-###",
        "cc": "KH",
        "name": "Камбоджа",
        "desc": ""
    },
    {
        "mask": "+686-##-###",
        "cc": "KI",
        "name": "Кирибати",
        "desc": ""
    },
    {
        "mask": "+269-##-#####",
        "cc": "KM",
        "name": "Коморы",
        "desc": ""
    },
    {
        "mask": "+1(869)###-####",
        "cc": "KN",
        "name": "Сент-Китс и Невис",
        "desc": ""
    },
    {
        "mask": "+850-191-###-####",
        "cc": "KP",
        "name": "Корейская НДР ",
        "desc": "мобильные"
    },
    {
        "mask": "+850-##-###-###",
        "cc": "KP",
        "name": "Корейская НДР",
        "desc": ""
    },
    {
        "mask": "+850-###-####-###",
        "cc": "KP",
        "name": "Корейская НДР",
        "desc": ""
    },
    {
        "mask": "+850-###-###",
        "cc": "KP",
        "name": "Корейская НДР",
        "desc": ""
    },
    {
        "mask": "+850-####-####",
        "cc": "KP",
        "name": "Корейская НДР",
        "desc": ""
    },
    {
        "mask": "+850-####-#############",
        "cc": "KP",
        "name": "Корейская НДР",
        "desc": ""
    },
    {
        "mask": "+82-##-###-####",
        "cc": "KR",
        "name": "Респ. Корея",
        "desc": ""
    },
    {
        "mask": "+965-####-####",
        "cc": "KW",
        "name": "Кувейт",
        "desc": ""
    },
    {
        "mask": "+1(345)###-####",
        "cc": "KY",
        "name": "Каймановы острова",
        "desc": ""
    },
    {
        "mask": "+7(6##)###-##-##",
        "cc": "KZ",
        "name": "Казахстан",
        "desc": ""
    },
    {
        "mask": "+7(7##)###-##-##",
        "cc": "KZ",
        "name": "Казахстан",
        "desc": ""
    },
    {
        "mask": "+856(20##)###-###",
        "cc": "LA",
        "name": "Лаос ",
        "desc": "мобильные"
    },
    {
        "mask": "+856-##-###-###",
        "cc": "LA",
        "name": "Лаос",
        "desc": ""
    },
    {
        "mask": "+961-##-###-###",
        "cc": "LB",
        "name": "Ливан ",
        "desc": "мобильные"
    },
    {
        "mask": "+961-#-###-###",
        "cc": "LB",
        "name": "Ливан",
        "desc": ""
    },
    {
        "mask": "+1(758)###-####",
        "cc": "LC",
        "name": "Сент-Люсия",
        "desc": ""
    },
    {
        "mask": "+423(###)###-####",
        "cc": "LI",
        "name": "Лихтенштейн",
        "desc": ""
    },
    {
        "mask": "+94-##-###-####",
        "cc": "LK",
        "name": "Шри-Ланка",
        "desc": ""
    },
    {
        "mask": "+231-##-###-###",
        "cc": "LR",
        "name": "Либерия",
        "desc": ""
    },
    {
        "mask": "+266-#-###-####",
        "cc": "LS",
        "name": "Лесото",
        "desc": ""
    },
    {
        "mask": "+370(###)##-###",
        "cc": "LT",
        "name": "Литва",
        "desc": ""
    },
    {
        "mask": "+352(###)###-###",
        "cc": "LU",
        "name": "Люксембург",
        "desc": ""
    },
    {
        "mask": "+371-##-###-###",
        "cc": "LV",
        "name": "Латвия",
        "desc": ""
    },
    {
        "mask": "+218-##-###-###",
        "cc": "LY",
        "name": "Ливия",
        "desc": ""
    },
    {
        "mask": "+218-21-###-####",
        "cc": "LY",
        "name": "Ливия",
        "desc": "Триполи"
    },
    {
        "mask": "+212-##-####-###",
        "cc": "MA",
        "name": "Марокко",
        "desc": ""
    },
    {
        "mask": "+377(###)###-###",
        "cc": "MC",
        "name": "Монако",
        "desc": ""
    },
    {
        "mask": "+377-##-###-###",
        "cc": "MC",
        "name": "Монако",
        "desc": ""
    },
    {
        "mask": "+373-####-####",
        "cc": "MD",
        "name": "Молдова",
        "desc": ""
    },
    {
        "mask": "+382-##-###-###",
        "cc": "ME",
        "name": "Черногория",
        "desc": ""
    },
    {
        "mask": "+261-##-##-#####",
        "cc": "MG",
        "name": "Мадагаскар",
        "desc": ""
    },
    {
        "mask": "+692-###-####",
        "cc": "MH",
        "name": "Маршалловы Острова",
        "desc": ""
    },
    {
        "mask": "+389-##-###-###",
        "cc": "MK",
        "name": "Респ. Македония",
        "desc": ""
    },
    {
        "mask": "+223-##-##-####",
        "cc": "ML",
        "name": "Мали",
        "desc": ""
    },
    {
        "mask": "+95-##-###-###",
        "cc": "MM",
        "name": "Бирма (Мьянма)",
        "desc": ""
    },
    {
        "mask": "+95-#-###-###",
        "cc": "MM",
        "name": "Бирма (Мьянма)",
        "desc": ""
    },
    {
        "mask": "+95-###-###",
        "cc": "MM",
        "name": "Бирма (Мьянма)",
        "desc": ""
    },
    {
        "mask": "+976-##-##-####",
        "cc": "MN",
        "name": "Монголия",
        "desc": ""
    },
    {
        "mask": "+853-####-####",
        "cc": "MO",
        "name": "Макао",
        "desc": ""
    },
    {
        "mask": "+1(670)###-####",
        "cc": "MP",
        "name": "Северные Марианские острова Сайпан",
        "desc": ""
    },
    {
        "mask": "+596(###)##-##-##",
        "cc": "MQ",
        "name": "Мартиника",
        "desc": ""
    },
    {
        "mask": "+222-##-##-####",
        "cc": "MR",
        "name": "Мавритания",
        "desc": ""
    },
    {
        "mask": "+1(664)###-####",
        "cc": "MS",
        "name": "Монтсеррат",
        "desc": ""
    },
    {
        "mask": "+356-####-####",
        "cc": "MT",
        "name": "Мальта",
        "desc": ""
    },
    {
        "mask": "+230-###-####",
        "cc": "MU",
        "name": "Маврикий",
        "desc": ""
    },
    {
        "mask": "+960-###-####",
        "cc": "MV",
        "name": "Мальдивские острова",
        "desc": ""
    },
    {
        "mask": "+265-1-###-###",
        "cc": "MW",
        "name": "Малави",
        "desc": "Telecom Ltd"
    },
    {
        "mask": "+265-#-####-####",
        "cc": "MW",
        "name": "Малави",
        "desc": ""
    },
    {
        "mask": "+52(###)###-####",
        "cc": "MX",
        "name": "Мексика",
        "desc": ""
    },
    {
        "mask": "+52-##-##-####",
        "cc": "MX",
        "name": "Мексика",
        "desc": ""
    },
    {
        "mask": "+60-##-###-####",
        "cc": "MY",
        "name": "Малайзия ",
        "desc": "мобильные"
    },
    {
        "mask": "+60(###)###-###",
        "cc": "MY",
        "name": "Малайзия",
        "desc": ""
    },
    {
        "mask": "+60-##-###-###",
        "cc": "MY",
        "name": "Малайзия",
        "desc": ""
    },
    {
        "mask": "+60-#-###-###",
        "cc": "MY",
        "name": "Малайзия",
        "desc": ""
    },
    {
        "mask": "+258-##-###-###",
        "cc": "MZ",
        "name": "Мозамбик",
        "desc": ""
    },
    {
        "mask": "+264-##-###-####",
        "cc": "NA",
        "name": "Намибия",
        "desc": ""
    },
    {
        "mask": "+687-##-####",
        "cc": "NC",
        "name": "Новая Каледония",
        "desc": ""
    },
    {
        "mask": "+227-##-##-####",
        "cc": "NE",
        "name": "Нигер",
        "desc": ""
    },
    {
        "mask": "+672-3##-###",
        "cc": "NF",
        "name": "Норфолк (остров)",
        "desc": ""
    },
    {
        "mask": "+234(###)###-####",
        "cc": "NG",
        "name": "Нигерия",
        "desc": ""
    },
    {
        "mask": "+234-##-###-###",
        "cc": "NG",
        "name": "Нигерия",
        "desc": ""
    },
    {
        "mask": "+234-##-###-##",
        "cc": "NG",
        "name": "Нигерия",
        "desc": ""
    },
    {
        "mask": "+234(###)###-####",
        "cc": "NG",
        "name": "Нигерия ",
        "desc": "мобильные"
    },
    {
        "mask": "+505-####-####",
        "cc": "NI",
        "name": "Никарагуа",
        "desc": ""
    },
    {
        "mask": "+31-##-###-####",
        "cc": "NL",
        "name": "Нидерланды",
        "desc": ""
    },
    {
        "mask": "+47(###)##-###",
        "cc": "NO",
        "name": "Норвегия",
        "desc": ""
    },
    {
        "mask": "+977-##-###-###",
        "cc": "NP",
        "name": "Непал",
        "desc": ""
    },
    {
        "mask": "+674-###-####",
        "cc": "NR",
        "name": "Науру",
        "desc": ""
    },
    {
        "mask": "+683-####",
        "cc": "NU",
        "name": "Ниуэ",
        "desc": ""
    },
    {
        "mask": "+64(###)###-###",
        "cc": "NZ",
        "name": "Новая Зеландия",
        "desc": ""
    },
    {
        "mask": "+64-##-###-###",
        "cc": "NZ",
        "name": "Новая Зеландия",
        "desc": ""
    },
    {
        "mask": "+64(###)###-####",
        "cc": "NZ",
        "name": "Новая Зеландия",
        "desc": ""
    },
    {
        "mask": "+968-##-###-###",
        "cc": "OM",
        "name": "Оман",
        "desc": ""
    },
    {
        "mask": "+507-###-####",
        "cc": "PA",
        "name": "Панама",
        "desc": ""
    },
    {
        "mask": "+51(###)###-###",
        "cc": "PE",
        "name": "Перу",
        "desc": ""
    },
    {
        "mask": "+689-##-##-##",
        "cc": "PF",
        "name": "Французская Полинезия (Таити)",
        "desc": ""
    },
    {
        "mask": "+675(###)##-###",
        "cc": "PG",
        "name": "Папуа-Новая Гвинея",
        "desc": ""
    },
    {
        "mask": "+63(###)###-####",
        "cc": "PH",
        "name": "Филиппины",
        "desc": ""
    },
    {
        "mask": "+92(###)###-####",
        "cc": "PK",
        "name": "Пакистан",
        "desc": ""
    },
    {
        "mask": "+48(###)###-###",
        "cc": "PL",
        "name": "Польша",
        "desc": ""
    },
    {
        "mask": "+970-##-###-####",
        "cc": "PS",
        "name": "Палестина",
        "desc": ""
    },
    {
        "mask": "+351-##-###-####",
        "cc": "PT",
        "name": "Португалия",
        "desc": ""
    },
    {
        "mask": "+680-###-####",
        "cc": "PW",
        "name": "Палау",
        "desc": ""
    },
    {
        "mask": "+595(###)###-###",
        "cc": "PY",
        "name": "Парагвай",
        "desc": ""
    },
    {
        "mask": "+974-####-####",
        "cc": "QA",
        "name": "Катар",
        "desc": ""
    },
    {
        "mask": "+262-#####-####",
        "cc": "RE",
        "name": "Реюньон",
        "desc": ""
    },
    {
        "mask": "+40-##-###-####",
        "cc": "RO",
        "name": "Румыния",
        "desc": ""
    },
    {
        "mask": "+381-##-###-####",
        "cc": "RS",
        "name": "Сербия",
        "desc": ""
    },
    {
        "mask": "+7(###)###-##-##",
        "cc": "RU",
        "name": "Россия",
        "desc": ""
    },
    {
        "mask": "+250(###)###-###",
        "cc": "RW",
        "name": "Руанда",
        "desc": ""
    },
    {
        "mask": "+966-5-####-####",
        "cc": "SA",
        "name": "Саудовская Аравия ",
        "desc": "мобильные"
    },
    {
        "mask": "+966-#-###-####",
        "cc": "SA",
        "name": "Саудовская Аравия",
        "desc": ""
    },
    {
        "mask": "+677-###-####",
        "cc": "SB",
        "name": "Соломоновы Острова ",
        "desc": "мобильные"
    },
    {
        "mask": "+677-#####",
        "cc": "SB",
        "name": "Соломоновы Острова",
        "desc": ""
    },
    {
        "mask": "+248-#-###-###",
        "cc": "SC",
        "name": "Сейшелы",
        "desc": ""
    },
    {
        "mask": "+249-##-###-####",
        "cc": "SD",
        "name": "Судан",
        "desc": ""
    },
    {
        "mask": "+46-##-###-####",
        "cc": "SE",
        "name": "Швеция",
        "desc": ""
    },
    {
        "mask": "+65-####-####",
        "cc": "SG",
        "name": "Сингапур",
        "desc": ""
    },
    {
        "mask": "+290-####",
        "cc": "SH",
        "name": "Остров Святой Елены",
        "desc": ""
    },
    {
        "mask": "+290-####",
        "cc": "SH",
        "name": "Тристан-да-Кунья",
        "desc": ""
    },
    {
        "mask": "+386-##-###-###",
        "cc": "SI",
        "name": "Словения",
        "desc": ""
    },
    {
        "mask": "+421(###)###-###",
        "cc": "SK",
        "name": "Словакия",
        "desc": ""
    },
    {
        "mask": "+232-##-######",
        "cc": "SL",
        "name": "Сьерра-Леоне",
        "desc": ""
    },
    {
        "mask": "+378-####-######",
        "cc": "SM",
        "name": "Сан-Марино",
        "desc": ""
    },
    {
        "mask": "+221-##-###-####",
        "cc": "SN",
        "name": "Сенегал",
        "desc": ""
    },
    {
        "mask": "+252-##-###-###",
        "cc": "SO",
        "name": "Сомали",
        "desc": ""
    },
    {
        "mask": "+252-#-###-###",
        "cc": "SO",
        "name": "Сомали",
        "desc": ""
    },
    {
        "mask": "+252-#-###-###",
        "cc": "SO",
        "name": "Сомали ",
        "desc": "мобильные"
    },
    {
        "mask": "+597-###-####",
        "cc": "SR",
        "name": "Суринам ",
        "desc": "мобильные"
    },
    {
        "mask": "+597-###-###",
        "cc": "SR",
        "name": "Суринам",
        "desc": ""
    },
    {
        "mask": "+211-##-###-####",
        "cc": "SS",
        "name": "Южный Судан",
        "desc": ""
    },
    {
        "mask": "+239-##-#####",
        "cc": "ST",
        "name": "Сан-Томе и Принсипи",
        "desc": ""
    },
    {
        "mask": "+503-##-##-####",
        "cc": "SV",
        "name": "Сальвадор",
        "desc": ""
    },
    {
        "mask": "+1(721)###-####",
        "cc": "SX",
        "name": "Синт-Маартен",
        "desc": ""
    },
    {
        "mask": "+963-##-####-###",
        "cc": "SY",
        "name": "Сирийская арабская республика",
        "desc": ""
    },
    {
        "mask": "+268-##-##-####",
        "cc": "SZ",
        "name": "Свазиленд",
        "desc": ""
    },
    {
        "mask": "+1(649)###-####",
        "cc": "TC",
        "name": "Тёркс и Кайкос",
        "desc": ""
    },
    {
        "mask": "+235-##-##-##-##",
        "cc": "TD",
        "name": "Чад",
        "desc": ""
    },
    {
        "mask": "+228-##-###-###",
        "cc": "TG",
        "name": "Того",
        "desc": ""
    },
    {
        "mask": "+66-##-###-####",
        "cc": "TH",
        "name": "Таиланд ",
        "desc": "мобильные"
    },
    {
        "mask": "+66-##-###-###",
        "cc": "TH",
        "name": "Таиланд",
        "desc": ""
    },
    {
        "mask": "+992-##-###-####",
        "cc": "TJ",
        "name": "Таджикистан",
        "desc": ""
    },
    {
        "mask": "+690-####",
        "cc": "TK",
        "name": "Токелау",
        "desc": ""
    },
    {
        "mask": "+670-###-####",
        "cc": "TL",
        "name": "Восточный Тимор",
        "desc": ""
    },
    {
        "mask": "+670-77#-#####",
        "cc": "TL",
        "name": "Восточный Тимор",
        "desc": "Timor Telecom"
    },
    {
        "mask": "+670-78#-#####",
        "cc": "TL",
        "name": "Восточный Тимор",
        "desc": "Timor Telecom"
    },
    {
        "mask": "+993-#-###-####",
        "cc": "TM",
        "name": "Туркменистан",
        "desc": ""
    },
    {
        "mask": "+216-##-###-###",
        "cc": "TN",
        "name": "Тунис",
        "desc": ""
    },
    {
        "mask": "+676-#####",
        "cc": "TO",
        "name": "Тонга",
        "desc": ""
    },
    {
        "mask": "+90(###)###-####",
        "cc": "TR",
        "name": "Турция",
        "desc": ""
    },
    {
        "mask": "+1(868)###-####",
        "cc": "TT",
        "name": "Тринидад и Тобаго",
        "desc": ""
    },
    {
        "mask": "+688-90####",
        "cc": "TV",
        "name": "Тувалу ",
        "desc": "мобильные"
    },
    {
        "mask": "+688-2####",
        "cc": "TV",
        "name": "Тувалу",
        "desc": ""
    },
    {
        "mask": "+886-#-####-####",
        "cc": "TW",
        "name": "Тайвань",
        "desc": ""
    },
    {
        "mask": "+886-####-####",
        "cc": "TW",
        "name": "Тайвань",
        "desc": ""
    },
    {
        "mask": "+255-##-###-####",
        "cc": "TZ",
        "name": "Танзания",
        "desc": ""
    },
    {
        "mask": "+380(##)###-##-##",
        "cc": "UA",
        "name": "Украина",
        "desc": ""
    },
    {
        "mask": "+256(###)###-###",
        "cc": "UG",
        "name": "Уганда",
        "desc": ""
    },
    {
        "mask": "+44-##-####-####",
        "cc": "UK",
        "name": "Великобритания",
        "desc": ""
    },
    {
        "mask": "+598-#-###-##-##",
        "cc": "UY",
        "name": "Уругвай",
        "desc": ""
    },
    {
        "mask": "+998-##-###-####",
        "cc": "UZ",
        "name": "Узбекистан",
        "desc": ""
    },
    {
        "mask": "+39-6-698-#####",
        "cc": "VA",
        "name": "Ватикан",
        "desc": ""
    },
    {
        "mask": "+1(784)###-####",
        "cc": "VC",
        "name": "Сент-Винсент и Гренадины",
        "desc": ""
    },
    {
        "mask": "+58(###)###-####",
        "cc": "VE",
        "name": "Венесуэла",
        "desc": ""
    },
    {
        "mask": "+1(284)###-####",
        "cc": "VG",
        "name": "Британские Виргинские острова",
        "desc": ""
    },
    {
        "mask": "+1(340)###-####",
        "cc": "VI",
        "name": "Американские Виргинские острова",
        "desc": ""
    },
    {
        "mask": "+84-##-####-###",
        "cc": "VN",
        "name": "Вьетнам",
        "desc": ""
    },
    {
        "mask": "+84(###)####-###",
        "cc": "VN",
        "name": "Вьетнам",
        "desc": ""
    },
    {
        "mask": "+678-##-#####",
        "cc": "VU",
        "name": "Вануату ",
        "desc": "мобильные"
    },
    {
        "mask": "+678-#####",
        "cc": "VU",
        "name": "Вануату",
        "desc": ""
    },
    {
        "mask": "+681-##-####",
        "cc": "WF",
        "name": "Уоллис и Футуна",
        "desc": ""
    },
    {
        "mask": "+685-##-####",
        "cc": "WS",
        "name": "Самоа",
        "desc": ""
    },
    {
        "mask": "+967-###-###-###",
        "cc": "YE",
        "name": "Йемен ",
        "desc": "мобильные"
    },
    {
        "mask": "+967-#-###-###",
        "cc": "YE",
        "name": "Йемен",
        "desc": ""
    },
    {
        "mask": "+967-##-###-###",
        "cc": "YE",
        "name": "Йемен",
        "desc": ""
    },
    {
        "mask": "+27-##-###-####",
        "cc": "ZA",
        "name": "Южно-Африканская Респ.",
        "desc": ""
    },
    {
        "mask": "+260-##-###-####",
        "cc": "ZM",
        "name": "Замбия",
        "desc": ""
    },
    {
        "mask": "+263-#-######",
        "cc": "ZW",
        "name": "Зимбабве",
        "desc": ""
    },
    {
        "mask": "+1(###)###-####",
        "cc": "US",
        "name": "США и Канада",
        "desc": ""
    },
    {
        "mask": "+1(201)###-####",
        "cc": "US",
        "name": "США",
        "desc": "Нью-Джерси"
    },
    {
        "mask": "+1(202)###-####",
        "cc": "US",
        "name": "США",
        "desc": "Округ Колумбия"
    },
    {
        "mask": "+1(203)###-####",
        "cc": "US",
        "name": "США",
        "desc": "Коннектикут"
    },
    {
        "mask": "+1(204)###-####",
        "cc": "CA",
        "name": "Канада",
        "desc": "Манитоба"
    },
    {
        "mask": "+1(205)###-####",
        "cc": "US",
        "name": "США",
        "desc": "Алабама"
    },
    {
        "mask": "+1(206)###-####",
        "cc": "US",
        "name": "США",
        "desc": "Вашингтон"
    },
    {
        "mask": "+1(207)###-####",
        "cc": "US",
        "name": "США",
        "desc": "Мэн"
    },
    {
        "mask": "+1(208)###-####",
        "cc": "US",
        "name": "США",
        "desc": "Айдахо"
    },
    {
        "mask": "+1(209)###-####",
        "cc": "US",
        "name": "США",
        "desc": "Калифорния"
    },
    {
        "mask": "+1(210)###-####",
        "cc": "US",
        "name": "США",
        "desc": "Техас"
    },
    {
        "mask": "+1(212)###-####",
        "cc": "US",
        "name": "США",
        "desc": "Нью-Йорк"
    },
    {
        "mask": "+1(213)###-####",
        "cc": "US",
        "name": "США",
        "desc": "Калифорния"
    },
    {
        "mask": "+1(214)###-####",
        "cc": "US",
        "name": "США",
        "desc": "Техас"
    },
    {
        "mask": "+1(215)###-####",
        "cc": "US",
        "name": "США",
        "desc": "Пенсильвания"
    },
    {
        "mask": "+1(216)###-####",
        "cc": "US",
        "name": "США",
        "desc": "Огайо"
    },
    {
        "mask": "+1(217)###-####",
        "cc": "US",
        "name": "США",
        "desc": "Иллинойс"
    },
    {
        "mask": "+1(218)###-####",
        "cc": "US",
        "name": "США",
        "desc": "Миннесота"
    },
    {
        "mask": "+1(219)###-####",
        "cc": "US",
        "name": "США",
        "desc": "Индиана"
    },
    {
        "mask": "+1(224)###-####",
        "cc": "US",
        "name": "США",
        "desc": "Иллинойс"
    },
    {
        "mask": "+1(225)###-####",
        "cc": "US",
        "name": "США",
        "desc": "Луизиана"
    },
    {
        "mask": "+1(226)###-####",
        "cc": "CA",
        "name": "Канада",
        "desc": "Онтарио"
    },
    {
        "mask": "+1(228)###-####",
        "cc": "US",
        "name": "США",
        "desc": "Миссисипи"
    },
    {
        "mask": "+1(229)###-####",
        "cc": "US",
        "name": "США",
        "desc": "Джорджия"
    },
    {
        "mask": "+1(231)###-####",
        "cc": "US",
        "name": "США",
        "desc": "Мичиган"
    },
    {
        "mask": "+1(234)###-####",
        "cc": "US",
        "name": "США",
        "desc": "Огайо"
    },
    {
        "mask": "+1(239)###-####",
        "cc": "US",
        "name": "США",
        "desc": "Флорида"
    },
    {
        "mask": "+1(240)###-####",
        "cc": "US",
        "name": "США",
        "desc": "Мэриленд"
    },
    {
        "mask": "+1(248)###-####",
        "cc": "US",
        "name": "США",
        "desc": "Мичиган"
    },
    {
        "mask": "+1(249)###-####",
        "cc": "CA",
        "name": "Канада",
        "desc": "Онтарио"
    },
    {
        "mask": "+1(250)###-####",
        "cc": "CA",
        "name": "Канада",
        "desc": "Британская Колумбия"
    },
    {
        "mask": "+1(251)###-####",
        "cc": "US",
        "name": "США",
        "desc": "Алабама"
    },
    {
        "mask": "+1(252)###-####",
        "cc": "US",
        "name": "США",
        "desc": "Северная Каролина"
    },
    {
        "mask": "+1(253)###-####",
        "cc": "US",
        "name": "США",
        "desc": "Вашингтон"
    },
    {
        "mask": "+1(254)###-####",
        "cc": "US",
        "name": "США",
        "desc": "Техас"
    },
    {
        "mask": "+1(256)###-####",
        "cc": "US",
        "name": "США",
        "desc": "Алабама"
    },
    {
        "mask": "+1(260)###-####",
        "cc": "US",
        "name": "США",
        "desc": "Индиана"
    },
    {
        "mask": "+1(262)###-####",
        "cc": "US",
        "name": "США",
        "desc": "Висконсин"
    },
    {
        "mask": "+1(267)###-####",
        "cc": "US",
        "name": "США",
        "desc": "Пенсильвания"
    },
    {
        "mask": "+1(269)###-####",
        "cc": "US",
        "name": "США",
        "desc": "Мичиган"
    },
    {
        "mask": "+1(270)###-####",
        "cc": "US",
        "name": "США",
        "desc": "Кентукки"
    },
    {
        "mask": "+1(276)###-####",
        "cc": "US",
        "name": "США",
        "desc": "Виргиния"
    },
    {
        "mask": "+1(281)###-####",
        "cc": "US",
        "name": "США",
        "desc": "Техас"
    },
    {
        "mask": "+1(289)###-####",
        "cc": "CA",
        "name": "Канада",
        "desc": "Онтарио"
    },
    {
        "mask": "+1(301)###-####",
        "cc": "US",
        "name": "США",
        "desc": "Мэриленд"
    },
    {
        "mask": "+1(302)###-####",
        "cc": "US",
        "name": "США",
        "desc": "Делавэр"
    },
    {
        "mask": "+1(303)###-####",
        "cc": "US",
        "name": "США",
        "desc": "Колорадо"
    },
    {
        "mask": "+1(304)###-####",
        "cc": "US",
        "name": "США",
        "desc": "Западная Виргиния"
    },
    {
        "mask": "+1(305)###-####",
        "cc": "US",
        "name": "США",
        "desc": "Флорида"
    },
    {
        "mask": "+1(306)###-####",
        "cc": "CA",
        "name": "Канада",
        "desc": "Саскачеван"
    },
    {
        "mask": "+1(307)###-####",
        "cc": "US",
        "name": "США",
        "desc": "Вайоминг"
    },
    {
        "mask": "+1(308)###-####",
        "cc": "US",
        "name": "США",
        "desc": "Небраска"
    },
    {
        "mask": "+1(309)###-####",
        "cc": "US",
        "name": "США",
        "desc": "Иллинойс"
    },
    {
        "mask": "+1(310)###-####",
        "cc": "US",
        "name": "США",
        "desc": "Калифорния"
    },
    {
        "mask": "+1(312)###-####",
        "cc": "US",
        "name": "США",
        "desc": "Иллинойс"
    },
    {
        "mask": "+1(313)###-####",
        "cc": "US",
        "name": "США",
        "desc": "Мичиган"
    },
    {
        "mask": "+1(314)###-####",
        "cc": "US",
        "name": "США",
        "desc": "Миссури"
    },
    {
        "mask": "+1(315)###-####",
        "cc": "US",
        "name": "США",
        "desc": "Нью-Йорк"
    },
    {
        "mask": "+1(316)###-####",
        "cc": "US",
        "name": "США",
        "desc": "Канзас"
    },
    {
        "mask": "+1(317)###-####",
        "cc": "US",
        "name": "США",
        "desc": "Индиана"
    },
    {
        "mask": "+1(318)###-####",
        "cc": "US",
        "name": "США",
        "desc": "Луизиана"
    },
    {
        "mask": "+1(319)###-####",
        "cc": "US",
        "name": "США",
        "desc": "Айова"
    },
    {
        "mask": "+1(320)###-####",
        "cc": "US",
        "name": "США",
        "desc": "Миннесота"
    },
    {
        "mask": "+1(321)###-####",
        "cc": "US",
        "name": "США",
        "desc": "Флорида"
    },
    {
        "mask": "+1(323)###-####",
        "cc": "US",
        "name": "США",
        "desc": "Калифорния"
    },
    {
        "mask": "+1(325)###-####",
        "cc": "US",
        "name": "США",
        "desc": "Техас"
    },
    {
        "mask": "+1(330)###-####",
        "cc": "US",
        "name": "США",
        "desc": "Огайо"
    },
    {
        "mask": "+1(331)###-####",
        "cc": "US",
        "name": "США",
        "desc": "Иллинойс"
    },
    {
        "mask": "+1(334)###-####",
        "cc": "US",
        "name": "США",
        "desc": "Алабама"
    },
    {
        "mask": "+1(336)###-####",
        "cc": "US",
        "name": "США",
        "desc": "Северная Каролина"
    },
    {
        "mask": "+1(337)###-####",
        "cc": "US",
        "name": "США",
        "desc": "Луизиана"
    },
    {
        "mask": "+1(339)###-####",
        "cc": "US",
        "name": "США",
        "desc": "Массачусетс"
    },
    {
        "mask": "+1(343)###-####",
        "cc": "CA",
        "name": "Канада",
        "desc": "Онтарио"
    },
    {
        "mask": "+1(347)###-####",
        "cc": "US",
        "name": "США",
        "desc": "Нью-Йорк"
    },
    {
        "mask": "+1(351)###-####",
        "cc": "US",
        "name": "США",
        "desc": "Массачусетс"
    },
    {
        "mask": "+1(352)###-####",
        "cc": "US",
        "name": "США",
        "desc": "Флорида"
    },
    {
        "mask": "+1(360)###-####",
        "cc": "US",
        "name": "США",
        "desc": "Вашингтон"
    },
    {
        "mask": "+1(361)###-####",
        "cc": "US",
        "name": "США",
        "desc": "Техас"
    },
    {
        "mask": "+1(385)###-####",
        "cc": "US",
        "name": "США",
        "desc": "Юта"
    },
    {
        "mask": "+1(386)###-####",
        "cc": "US",
        "name": "США",
        "desc": "Флорида"
    },
    {
        "mask": "+1(401)###-####",
        "cc": "US",
        "name": "США",
        "desc": "Род-Айленд"
    },
    {
        "mask": "+1(402)###-####",
        "cc": "US",
        "name": "США",
        "desc": "Небраска"
    },
    {
        "mask": "+1(403)###-####",
        "cc": "CA",
        "name": "Канада",
        "desc": "Альберта"
    },
    {
        "mask": "+1(404)###-####",
        "cc": "US",
        "name": "США",
        "desc": "Джорджия"
    },
    {
        "mask": "+1(405)###-####",
        "cc": "US",
        "name": "США",
        "desc": "Оклахома"
    },
    {
        "mask": "+1(406)###-####",
        "cc": "US",
        "name": "США",
        "desc": "Монтана"
    },
    {
        "mask": "+1(407)###-####",
        "cc": "US",
        "name": "США",
        "desc": "Флорида"
    },
    {
        "mask": "+1(408)###-####",
        "cc": "US",
        "name": "США",
        "desc": "Калифорния"
    },
    {
        "mask": "+1(409)###-####",
        "cc": "US",
        "name": "США",
        "desc": "Техас"
    },
    {
        "mask": "+1(410)###-####",
        "cc": "US",
        "name": "США",
        "desc": "Мэриленд"
    },
    {
        "mask": "+1(412)###-####",
        "cc": "US",
        "name": "США",
        "desc": "Пенсильвания"
    },
    {
        "mask": "+1(413)###-####",
        "cc": "US",
        "name": "США",
        "desc": "Массачусетс"
    },
    {
        "mask": "+1(414)###-####",
        "cc": "US",
        "name": "США",
        "desc": "Висконсин"
    },
    {
        "mask": "+1(415)###-####",
        "cc": "US",
        "name": "США",
        "desc": "Калифорния"
    },
    {
        "mask": "+1(416)###-####",
        "cc": "CA",
        "name": "Канада",
        "desc": "Онтарио"
    },
    {
        "mask": "+1(417)###-####",
        "cc": "US",
        "name": "США",
        "desc": "Миссури"
    },
    {
        "mask": "+1(418)###-####",
        "cc": "CA",
        "name": "Канада",
        "desc": "Квебек"
    },
    {
        "mask": "+1(419)###-####",
        "cc": "US",
        "name": "США",
        "desc": "Огайо"
    },
    {
        "mask": "+1(423)###-####",
        "cc": "US",
        "name": "США",
        "desc": "Теннесси"
    },
    {
        "mask": "+1(424)###-####",
        "cc": "US",
        "name": "США",
        "desc": "Калифорния"
    },
    {
        "mask": "+1(425)###-####",
        "cc": "US",
        "name": "США",
        "desc": "Вашингтон"
    },
    {
        "mask": "+1(430)###-####",
        "cc": "US",
        "name": "США",
        "desc": "Техас"
    },
    {
        "mask": "+1(432)###-####",
        "cc": "US",
        "name": "США",
        "desc": "Техас"
    },
    {
        "mask": "+1(434)###-####",
        "cc": "US",
        "name": "США",
        "desc": "Виргиния"
    },
    {
        "mask": "+1(435)###-####",
        "cc": "US",
        "name": "США",
        "desc": "Юта"
    },
    {
        "mask": "+1(438)###-####",
        "cc": "CA",
        "name": "Канада",
        "desc": "Квебек"
    },
    {
        "mask": "+1(440)###-####",
        "cc": "US",
        "name": "США",
        "desc": "Огайо"
    },
    {
        "mask": "+1(442)###-####",
        "cc": "US",
        "name": "США",
        "desc": "Калифорния"
    },
    {
        "mask": "+1(443)###-####",
        "cc": "US",
        "name": "США",
        "desc": "Мэриленд"
    },
    {
        "mask": "+1(450)###-####",
        "cc": "CA",
        "name": "Канада",
        "desc": "Квебек"
    },
    {
        "mask": "+1(458)###-####",
        "cc": "US",
        "name": "США",
        "desc": "Орегон"
    },
    {
        "mask": "+1(469)###-####",
        "cc": "US",
        "name": "США",
        "desc": "Техас"
    },
    {
        "mask": "+1(475)###-####",
        "cc": "US",
        "name": "США",
        "desc": "Коннектикут"
    },
    {
        "mask": "+1(478)###-####",
        "cc": "US",
        "name": "США",
        "desc": "Джорджия"
    },
    {
        "mask": "+1(479)###-####",
        "cc": "US",
        "name": "США",
        "desc": "Арканзас"
    },
    {
        "mask": "+1(480)###-####",
        "cc": "US",
        "name": "США",
        "desc": "Аризона"
    },
    {
        "mask": "+1(484)###-####",
        "cc": "US",
        "name": "США",
        "desc": "Пенсильвания"
    },
    {
        "mask": "+1(501)###-####",
        "cc": "US",
        "name": "США",
        "desc": "Арканзас"
    },
    {
        "mask": "+1(502)###-####",
        "cc": "US",
        "name": "США",
        "desc": "Кентукки"
    },
    {
        "mask": "+1(503)###-####",
        "cc": "US",
        "name": "США",
        "desc": "Орегон"
    },
    {
        "mask": "+1(504)###-####",
        "cc": "US",
        "name": "США",
        "desc": "Луизиана"
    },
    {
        "mask": "+1(505)###-####",
        "cc": "US",
        "name": "США",
        "desc": "Нью-Мексико"
    },
    {
        "mask": "+1(506)###-####",
        "cc": "CA",
        "name": "Канада",
        "desc": "Нью-Брансуик"
    },
    {
        "mask": "+1(507)###-####",
        "cc": "US",
        "name": "США",
        "desc": "Миннесота"
    },
    {
        "mask": "+1(508)###-####",
        "cc": "US",
        "name": "США",
        "desc": "Массачусетс"
    },
    {
        "mask": "+1(509)###-####",
        "cc": "US",
        "name": "США",
        "desc": "Вашингтон"
    },
    {
        "mask": "+1(510)###-####",
        "cc": "US",
        "name": "США",
        "desc": "Калифорния"
    },
    {
        "mask": "+1(512)###-####",
        "cc": "US",
        "name": "США",
        "desc": "Техас"
    },
    {
        "mask": "+1(513)###-####",
        "cc": "US",
        "name": "США",
        "desc": "Огайо"
    },
    {
        "mask": "+1(514)###-####",
        "cc": "CA",
        "name": "Канада",
        "desc": "Квебек"
    },
    {
        "mask": "+1(515)###-####",
        "cc": "US",
        "name": "США",
        "desc": "Айова"
    },
    {
        "mask": "+1(516)###-####",
        "cc": "US",
        "name": "США",
        "desc": "Нью-Йорк"
    },
    {
        "mask": "+1(517)###-####",
        "cc": "US",
        "name": "США",
        "desc": "Мичиган"
    },
    {
        "mask": "+1(518)###-####",
        "cc": "US",
        "name": "США",
        "desc": "Нью-Йорк"
    },
    {
        "mask": "+1(519)###-####",
        "cc": "CA",
        "name": "Канада",
        "desc": "Онтарио"
    },
    {
        "mask": "+1(520)###-####",
        "cc": "US",
        "name": "США",
        "desc": "Аризона"
    },
    {
        "mask": "+1(530)###-####",
        "cc": "US",
        "name": "США",
        "desc": "Калифорния"
    },
    {
        "mask": "+1(531)###-####",
        "cc": "US",
        "name": "США",
        "desc": "Небраска"
    },
    {
        "mask": "+1(534)###-####",
        "cc": "US",
        "name": "США",
        "desc": "Висконсин"
    },
    {
        "mask": "+1(539)###-####",
        "cc": "US",
        "name": "США",
        "desc": "Оклахома"
    },
    {
        "mask": "+1(540)###-####",
        "cc": "US",
        "name": "США",
        "desc": "Виргиния"
    },
    {
        "mask": "+1(541)###-####",
        "cc": "US",
        "name": "США",
        "desc": "Орегон"
    },
    {
        "mask": "+1(551)###-####",
        "cc": "US",
        "name": "США",
        "desc": "Нью-Джерси"
    },
    {
        "mask": "+1(559)###-####",
        "cc": "US",
        "name": "США",
        "desc": "Калифорния"
    },
    {
        "mask": "+1(561)###-####",
        "cc": "US",
        "name": "США",
        "desc": "Флорида"
    },
    {
        "mask": "+1(562)###-####",
        "cc": "US",
        "name": "США",
        "desc": "Калифорния"
    },
    {
        "mask": "+1(563)###-####",
        "cc": "US",
        "name": "США",
        "desc": "Айова"
    },
    {
        "mask": "+1(567)###-####",
        "cc": "US",
        "name": "США",
        "desc": "Огайо"
    },
    {
        "mask": "+1(570)###-####",
        "cc": "US",
        "name": "США",
        "desc": "Пенсильвания"
    },
    {
        "mask": "+1(571)###-####",
        "cc": "US",
        "name": "США",
        "desc": "Виргиния"
    },
    {
        "mask": "+1(573)###-####",
        "cc": "US",
        "name": "США",
        "desc": "Миссури"
    },
    {
        "mask": "+1(574)###-####",
        "cc": "US",
        "name": "США",
        "desc": "Индиана"
    },
    {
        "mask": "+1(575)###-####",
        "cc": "US",
        "name": "США",
        "desc": "Нью-Мексико"
    },
    {
        "mask": "+1(579)###-####",
        "cc": "CA",
        "name": "Канада",
        "desc": "Квебек"
    },
    {
        "mask": "+1(580)###-####",
        "cc": "US",
        "name": "США",
        "desc": "Оклахома"
    },
    {
        "mask": "+1(581)###-####",
        "cc": "CA",
        "name": "Канада",
        "desc": "Квебек"
    },
    {
        "mask": "+1(586)###-####",
        "cc": "US",
        "name": "США",
        "desc": "Мичиган"
    },
    {
        "mask": "+1(587)###-####",
        "cc": "CA",
        "name": "Канада",
        "desc": "Альберта"
    },
    {
        "mask": "+1(601)###-####",
        "cc": "US",
        "name": "США",
        "desc": "Миссисипи"
    },
    {
        "mask": "+1(603)###-####",
        "cc": "US",
        "name": "США",
        "desc": "Нью-Гэмпшир"
    },
    {
        "mask": "+1(604)###-####",
        "cc": "CA",
        "name": "Канада",
        "desc": "Британская Колумбия"
    },
    {
        "mask": "+1(605)###-####",
        "cc": "US",
        "name": "США",
        "desc": "Южная Дакота"
    },
    {
        "mask": "+1(606)###-####",
        "cc": "US",
        "name": "США",
        "desc": "Кентукки"
    },
    {
        "mask": "+1(607)###-####",
        "cc": "US",
        "name": "США",
        "desc": "Нью-Йорк"
    },
    {
        "mask": "+1(608)###-####",
        "cc": "US",
        "name": "США",
        "desc": "Висконсин"
    },
    {
        "mask": "+1(609)###-####",
        "cc": "US",
        "name": "США",
        "desc": "Нью-Джерси"
    },
    {
        "mask": "+1(610)###-####",
        "cc": "US",
        "name": "США",
        "desc": "Пенсильвания"
    },
    {
        "mask": "+1(612)###-####",
        "cc": "US",
        "name": "США",
        "desc": "Миннесота"
    },
    {
        "mask": "+1(613)###-####",
        "cc": "CA",
        "name": "Канада",
        "desc": "Онтарио"
    },
    {
        "mask": "+1(614)###-####",
        "cc": "US",
        "name": "США",
        "desc": "Огайо"
    },
    {
        "mask": "+1(615)###-####",
        "cc": "US",
        "name": "США",
        "desc": "Теннесси"
    },
    {
        "mask": "+1(616)###-####",
        "cc": "US",
        "name": "США",
        "desc": "Мичиган"
    },
    {
        "mask": "+1(617)###-####",
        "cc": "US",
        "name": "США",
        "desc": "Массачусетс"
    },
    {
        "mask": "+1(618)###-####",
        "cc": "US",
        "name": "США",
        "desc": "Иллинойс"
    },
    {
        "mask": "+1(619)###-####",
        "cc": "US",
        "name": "США",
        "desc": "Калифорния"
    },
    {
        "mask": "+1(620)###-####",
        "cc": "US",
        "name": "США",
        "desc": "Канзас"
    },
    {
        "mask": "+1(623)###-####",
        "cc": "US",
        "name": "США",
        "desc": "Аризона"
    },
    {
        "mask": "+1(626)###-####",
        "cc": "US",
        "name": "США",
        "desc": "Калифорния"
    },
    {
        "mask": "+1(630)###-####",
        "cc": "US",
        "name": "США",
        "desc": "Иллинойс"
    },
    {
        "mask": "+1(631)###-####",
        "cc": "US",
        "name": "США",
        "desc": "Нью-Йорк"
    },
    {
        "mask": "+1(636)###-####",
        "cc": "US",
        "name": "США",
        "desc": "Миссури"
    },
    {
        "mask": "+1(641)###-####",
        "cc": "US",
        "name": "США",
        "desc": "Айова"
    },
    {
        "mask": "+1(646)###-####",
        "cc": "US",
        "name": "США",
        "desc": "Нью-Йорк"
    },
    {
        "mask": "+1(647)###-####",
        "cc": "CA",
        "name": "Канада",
        "desc": "Онтарио"
    },
    {
        "mask": "+1(650)###-####",
        "cc": "US",
        "name": "США",
        "desc": "Калифорния"
    },
    {
        "mask": "+1(651)###-####",
        "cc": "US",
        "name": "США",
        "desc": "Миннесота"
    },
    {
        "mask": "+1(657)###-####",
        "cc": "US",
        "name": "США",
        "desc": "Калифорния"
    },
    {
        "mask": "+1(660)###-####",
        "cc": "US",
        "name": "США",
        "desc": "Миссури"
    },
    {
        "mask": "+1(661)###-####",
        "cc": "US",
        "name": "США",
        "desc": "Калифорния"
    },
    {
        "mask": "+1(662)###-####",
        "cc": "US",
        "name": "США",
        "desc": "Миссисипи"
    },
    {
        "mask": "+1(665)###-####",
        "cc": "US",
        "name": "США",
        "desc": "Аризона"
    },
    {
        "mask": "+1(678)###-####",
        "cc": "US",
        "name": "США",
        "desc": "Джорджия"
    },
    {
        "mask": "+1(681)###-####",
        "cc": "US",
        "name": "США",
        "desc": "Западная Виргиния"
    },
    {
        "mask": "+1(682)###-####",
        "cc": "US",
        "name": "США",
        "desc": "Техас"
    },
    {
        "mask": "+1(701)###-####",
        "cc": "US",
        "name": "США",
        "desc": "Северная Дакота"
    },
    {
        "mask": "+1(702)###-####",
        "cc": "US",
        "name": "США",
        "desc": "Невада"
    },
    {
        "mask": "+1(703)###-####",
        "cc": "US",
        "name": "США",
        "desc": "Виргиния"
    },
    {
        "mask": "+1(704)###-####",
        "cc": "US",
        "name": "США",
        "desc": "Северная Каролина"
    },
    {
        "mask": "+1(705)###-####",
        "cc": "CA",
        "name": "Канада",
        "desc": "Онтарио"
    },
    {
        "mask": "+1(706)###-####",
        "cc": "US",
        "name": "США",
        "desc": "Джорджия"
    },
    {
        "mask": "+1(707)###-####",
        "cc": "US",
        "name": "США",
        "desc": "Калифорния"
    },
    {
        "mask": "+1(708)###-####",
        "cc": "US",
        "name": "США",
        "desc": "Иллинойс"
    },
    {
        "mask": "+1(709)###-####",
        "cc": "CA",
        "name": "Канада",
        "desc": "Ньюфаундленд и Лабрадор"
    },
    {
        "mask": "+1(712)###-####",
        "cc": "US",
        "name": "США",
        "desc": "Айова"
    },
    {
        "mask": "+1(713)###-####",
        "cc": "US",
        "name": "США",
        "desc": "Техас"
    },
    {
        "mask": "+1(714)###-####",
        "cc": "US",
        "name": "США",
        "desc": "Калифорния"
    },
    {
        "mask": "+1(715)###-####",
        "cc": "US",
        "name": "США",
        "desc": "Висконсин"
    },
    {
        "mask": "+1(716)###-####",
        "cc": "US",
        "name": "США",
        "desc": "Нью-Йорк"
    },
    {
        "mask": "+1(717)###-####",
        "cc": "US",
        "name": "США",
        "desc": "Пенсильвания"
    },
    {
        "mask": "+1(718)###-####",
        "cc": "US",
        "name": "США",
        "desc": "Нью-Йорк"
    },
    {
        "mask": "+1(719)###-####",
        "cc": "US",
        "name": "США",
        "desc": "Колорадо"
    },
    {
        "mask": "+1(720)###-####",
        "cc": "US",
        "name": "США",
        "desc": "Колорадо"
    },
    {
        "mask": "+1(724)###-####",
        "cc": "US",
        "name": "США",
        "desc": "Пенсильвания"
    },
    {
        "mask": "+1(727)###-####",
        "cc": "US",
        "name": "США",
        "desc": "Флорида"
    },
    {
        "mask": "+1(731)###-####",
        "cc": "US",
        "name": "США",
        "desc": "Теннесси"
    },
    {
        "mask": "+1(732)###-####",
        "cc": "US",
        "name": "США",
        "desc": "Нью-Джерси"
    },
    {
        "mask": "+1(734)###-####",
        "cc": "US",
        "name": "США",
        "desc": "Мичиган"
    },
    {
        "mask": "+1(740)###-####",
        "cc": "US",
        "name": "США",
        "desc": "Огайо"
    },
    {
        "mask": "+1(747)###-####",
        "cc": "US",
        "name": "США",
        "desc": "Калифорния"
    },
    {
        "mask": "+1(754)###-####",
        "cc": "US",
        "name": "США",
        "desc": "Флорида"
    },
    {
        "mask": "+1(757)###-####",
        "cc": "US",
        "name": "США",
        "desc": "Виргиния"
    },
    {
        "mask": "+1(760)###-####",
        "cc": "US",
        "name": "США",
        "desc": "Калифорния"
    },
    {
        "mask": "+1(762)###-####",
        "cc": "US",
        "name": "США",
        "desc": "Джорджия"
    },
    {
        "mask": "+1(763)###-####",
        "cc": "US",
        "name": "США",
        "desc": "Миннесота"
    },
    {
        "mask": "+1(765)###-####",
        "cc": "US",
        "name": "США",
        "desc": "Индиана"
    },
    {
        "mask": "+1(769)###-####",
        "cc": "US",
        "name": "США",
        "desc": "Миссисипи"
    },
    {
        "mask": "+1(770)###-####",
        "cc": "US",
        "name": "США",
        "desc": "Джорджия"
    },
    {
        "mask": "+1(772)###-####",
        "cc": "US",
        "name": "США",
        "desc": "Флорида"
    },
    {
        "mask": "+1(773)###-####",
        "cc": "US",
        "name": "США",
        "desc": "Иллинойс"
    },
    {
        "mask": "+1(774)###-####",
        "cc": "US",
        "name": "США",
        "desc": "Массачусетс"
    },
    {
        "mask": "+1(775)###-####",
        "cc": "US",
        "name": "США",
        "desc": "Невада"
    },
    {
        "mask": "+1(778)###-####",
        "cc": "CA",
        "name": "Канада",
        "desc": "Британская Колумбия"
    },
    {
        "mask": "+1(779)###-####",
        "cc": "US",
        "name": "США",
        "desc": "Иллинойс"
    },
    {
        "mask": "+1(780)###-####",
        "cc": "CA",
        "name": "Канада",
        "desc": "Альберта"
    },
    {
        "mask": "+1(781)###-####",
        "cc": "US",
        "name": "США",
        "desc": "Массачусетс"
    },
    {
        "mask": "+1(785)###-####",
        "cc": "US",
        "name": "США",
        "desc": "Канзас"
    },
    {
        "mask": "+1(786)###-####",
        "cc": "US",
        "name": "США",
        "desc": "Флорида"
    },
    {
        "mask": "+1(801)###-####",
        "cc": "US",
        "name": "США",
        "desc": "Юта"
    },
    {
        "mask": "+1(802)###-####",
        "cc": "US",
        "name": "США",
        "desc": "Вермонт"
    },
    {
        "mask": "+1(803)###-####",
        "cc": "US",
        "name": "США",
        "desc": "Южная Каролина"
    },
    {
        "mask": "+1(804)###-####",
        "cc": "US",
        "name": "США",
        "desc": "Виргиния"
    },
    {
        "mask": "+1(805)###-####",
        "cc": "US",
        "name": "США",
        "desc": "Калифорния"
    },
    {
        "mask": "+1(806)###-####",
        "cc": "US",
        "name": "США",
        "desc": "Техас"
    },
    {
        "mask": "+1(807)###-####",
        "cc": "CA",
        "name": "Канада",
        "desc": "Онтарио"
    },
    {
        "mask": "+1(808)###-####",
        "cc": "US",
        "name": "США",
        "desc": "Гавайи"
    },
    {
        "mask": "+1(810)###-####",
        "cc": "US",
        "name": "США",
        "desc": "Мичиган"
    },
    {
        "mask": "+1(812)###-####",
        "cc": "US",
        "name": "США",
        "desc": "Индиана"
    },
    {
        "mask": "+1(813)###-####",
        "cc": "US",
        "name": "США",
        "desc": "Флорида"
    },
    {
        "mask": "+1(814)###-####",
        "cc": "US",
        "name": "США",
        "desc": "Пенсильвания"
    },
    {
        "mask": "+1(815)###-####",
        "cc": "US",
        "name": "США",
        "desc": "Иллинойс"
    },
    {
        "mask": "+1(816)###-####",
        "cc": "US",
        "name": "США",
        "desc": "Миссури"
    },
    {
        "mask": "+1(817)###-####",
        "cc": "US",
        "name": "США",
        "desc": "Техас"
    },
    {
        "mask": "+1(818)###-####",
        "cc": "US",
        "name": "США",
        "desc": "Калифорния"
    },
    {
        "mask": "+1(819)###-####",
        "cc": "CA",
        "name": "Канада",
        "desc": "Квебек"
    },
    {
        "mask": "+1(828)###-####",
        "cc": "US",
        "name": "США",
        "desc": "Северная Каролина"
    },
    {
        "mask": "+1(830)###-####",
        "cc": "US",
        "name": "США",
        "desc": "Техас"
    },
    {
        "mask": "+1(831)###-####",
        "cc": "US",
        "name": "США",
        "desc": "Калифорния"
    },
    {
        "mask": "+1(832)###-####",
        "cc": "US",
        "name": "США",
        "desc": "Техас"
    },
    {
        "mask": "+1(843)###-####",
        "cc": "US",
        "name": "США",
        "desc": "Южная Каролина"
    },
    {
        "mask": "+1(845)###-####",
        "cc": "US",
        "name": "США",
        "desc": "Нью-Йорк"
    },
    {
        "mask": "+1(847)###-####",
        "cc": "US",
        "name": "США",
        "desc": "Иллинойс"
    },
    {
        "mask": "+1(848)###-####",
        "cc": "US",
        "name": "США",
        "desc": "Нью-Джерси"
    },
    {
        "mask": "+1(850)###-####",
        "cc": "US",
        "name": "США",
        "desc": "Флорида"
    },
    {
        "mask": "+1(856)###-####",
        "cc": "US",
        "name": "США",
        "desc": "Нью-Джерси"
    },
    {
        "mask": "+1(857)###-####",
        "cc": "US",
        "name": "США",
        "desc": "Массачусетс"
    },
    {
        "mask": "+1(858)###-####",
        "cc": "US",
        "name": "США",
        "desc": "Калифорния"
    },
    {
        "mask": "+1(859)###-####",
        "cc": "US",
        "name": "США",
        "desc": "Кентукки"
    },
    {
        "mask": "+1(860)###-####",
        "cc": "US",
        "name": "США",
        "desc": "Коннектикут"
    },
    {
        "mask": "+1(862)###-####",
        "cc": "US",
        "name": "США",
        "desc": "Нью-Джерси"
    },
    {
        "mask": "+1(863)###-####",
        "cc": "US",
        "name": "США",
        "desc": "Флорида"
    },
    {
        "mask": "+1(864)###-####",
        "cc": "US",
        "name": "США",
        "desc": "Южная Каролина"
    },
    {
        "mask": "+1(865)###-####",
        "cc": "US",
        "name": "США",
        "desc": "Теннесси"
    },
    {
        "mask": "+1(867)###-####",
        "cc": "CA",
        "name": "Канада",
        "desc": "Нунавут"
    },
    {
        "mask": "+1(867)###-####",
        "cc": "CA",
        "name": "Канада",
        "desc": "Северо-Западные территории"
    },
    {
        "mask": "+1(867)###-####",
        "cc": "CA",
        "name": "Канада",
        "desc": "Юкон"
    },
    {
        "mask": "+1(870)###-####",
        "cc": "US",
        "name": "США",
        "desc": "Арканзас"
    },
    {
        "mask": "+1(872)###-####",
        "cc": "US",
        "name": "США",
        "desc": "Иллинойс"
    },
    {
        "mask": "+1(878)###-####",
        "cc": "US",
        "name": "США",
        "desc": "Пенсильвания"
    },
    {
        "mask": "+1(901)###-####",
        "cc": "US",
        "name": "США",
        "desc": "Теннесси"
    },
    {
        "mask": "+1(902)###-####",
        "cc": "CA",
        "name": "Канада",
        "desc": "Новая Шотландия"
    },
    {
        "mask": "+1(902)###-####",
        "cc": "CA",
        "name": "Канада",
        "desc": "Остров Принца Эдуарда"
    },
    {
        "mask": "+1(903)###-####",
        "cc": "US",
        "name": "США",
        "desc": "Техас"
    },
    {
        "mask": "+1(904)###-####",
        "cc": "US",
        "name": "США",
        "desc": "Флорида"
    },
    {
        "mask": "+1(905)###-####",
        "cc": "CA",
        "name": "Канада",
        "desc": "Онтарио"
    },
    {
        "mask": "+1(906)###-####",
        "cc": "US",
        "name": "США",
        "desc": "Мичиган"
    },
    {
        "mask": "+1(907)###-####",
        "cc": "US",
        "name": "США",
        "desc": "Аляска"
    },
    {
        "mask": "+1(908)###-####",
        "cc": "US",
        "name": "США",
        "desc": "Нью-Джерси"
    },
    {
        "mask": "+1(909)###-####",
        "cc": "US",
        "name": "США",
        "desc": "Калифорния"
    },
    {
        "mask": "+1(910)###-####",
        "cc": "US",
        "name": "США",
        "desc": "Северная Каролина"
    },
    {
        "mask": "+1(912)###-####",
        "cc": "US",
        "name": "США",
        "desc": "Джорджия"
    },
    {
        "mask": "+1(913)###-####",
        "cc": "US",
        "name": "США",
        "desc": "Канзас"
    },
    {
        "mask": "+1(914)###-####",
        "cc": "US",
        "name": "США",
        "desc": "Нью-Йорк"
    },
    {
        "mask": "+1(915)###-####",
        "cc": "US",
        "name": "США",
        "desc": "Техас"
    },
    {
        "mask": "+1(916)###-####",
        "cc": "US",
        "name": "США",
        "desc": "Калифорния"
    },
    {
        "mask": "+1(917)###-####",
        "cc": "US",
        "name": "США",
        "desc": "Нью-Йорк"
    },
    {
        "mask": "+1(918)###-####",
        "cc": "US",
        "name": "США",
        "desc": "Оклахома"
    },
    {
        "mask": "+1(919)###-####",
        "cc": "US",
        "name": "США",
        "desc": "Северная Каролина"
    },
    {
        "mask": "+1(920)###-####",
        "cc": "US",
        "name": "США",
        "desc": "Висконсин"
    },
    {
        "mask": "+1(925)###-####",
        "cc": "US",
        "name": "США",
        "desc": "Калифорния"
    },
    {
        "mask": "+1(928)###-####",
        "cc": "US",
        "name": "США",
        "desc": "Аризона"
    },
    {
        "mask": "+1(931)###-####",
        "cc": "US",
        "name": "США",
        "desc": "Теннесси"
    },
    {
        "mask": "+1(936)###-####",
        "cc": "US",
        "name": "США",
        "desc": "Техас"
    },
    {
        "mask": "+1(937)###-####",
        "cc": "US",
        "name": "США",
        "desc": "Огайо"
    },
    {
        "mask": "+1(938)###-####",
        "cc": "US",
        "name": "США",
        "desc": "Алабама"
    },
    {
        "mask": "+1(940)###-####",
        "cc": "US",
        "name": "США",
        "desc": "Техас"
    },
    {
        "mask": "+1(941)###-####",
        "cc": "US",
        "name": "США",
        "desc": "Флорида"
    },
    {
        "mask": "+1(947)###-####",
        "cc": "US",
        "name": "США",
        "desc": "Мичиган"
    },
    {
        "mask": "+1(949)###-####",
        "cc": "US",
        "name": "США",
        "desc": "Калифорния"
    },
    {
        "mask": "+1(951)###-####",
        "cc": "US",
        "name": "США",
        "desc": "Калифорния"
    },
    {
        "mask": "+1(952)###-####",
        "cc": "US",
        "name": "США",
        "desc": "Миннесота"
    },
    {
        "mask": "+1(954)###-####",
        "cc": "US",
        "name": "США",
        "desc": "Флорида"
    },
    {
        "mask": "+1(956)###-####",
        "cc": "US",
        "name": "США",
        "desc": "Техас"
    },
    {
        "mask": "+1(970)###-####",
        "cc": "US",
        "name": "США",
        "desc": "Колорадо"
    },
    {
        "mask": "+1(971)###-####",
        "cc": "US",
        "name": "США",
        "desc": "Орегон"
    },
    {
        "mask": "+1(972)###-####",
        "cc": "US",
        "name": "США",
        "desc": "Техас"
    },
    {
        "mask": "+1(973)###-####",
        "cc": "US",
        "name": "США",
        "desc": "Нью-Джерси"
    },
    {
        "mask": "+1(978)###-####",
        "cc": "US",
        "name": "США",
        "desc": "Массачусетс"
    },
    {
        "mask": "+1(979)###-####",
        "cc": "US",
        "name": "США",
        "desc": "Техас"
    },
    {
        "mask": "+1(980)###-####",
        "cc": "US",
        "name": "США",
        "desc": "Северная Каролина"
    },
    {
        "mask": "+1(985)###-####",
        "cc": "US",
        "name": "США",
        "desc": "Луизиана"
    },
    {
        "mask": "+1(989)###-####",
        "cc": "US",
        "name": "США",
        "desc": "Мичиган"
    }
]
