{
  "components": {
    "securitySchemes": {
      "BearerAuth": {
        "type": "http",
        "scheme": "bearer"
      }
    }
  },
  "security": [
    {
      "BearerAuth": []
    }
  ],
  "openapi": "3.0.0",
  "info": {
    "title": "API",
    "description": "API",
    "version": "1.0.0"
  },
  "servers": [
    {
      "url": "http://localhost:5680/api",
      "description": "API",
    }
  ],
  "paths": {
    "/facilities/{facilityCode}/points": {
      "get": {
        "parameters": [
          {
            "in": "path",
            "allowEmptyValue": false,
            "example": "999999999999999999999991",
            "required": true,
            "name": "facilityCode"
          }
        ],
        "responses": {
          "default": {
            "content": {
              "status": true
            },
            "description": ""
          }
        }
      }
    },
    "/points": {
      "description": "Получение точек",
      "get": {
        "description": "index",
        "responses": {
          "default": {
            "description": ""
          }
        }
      },
      "post": {
        "description": "update",
        "responses": {
          "default": {
            "description": ""
          }
        }
      }
    }
  }
}