<svg xmlns="http://www.w3.org/2000/svg" width="52" height="52" viewBox="0 0 52 52">
  <defs>
    <style>
      .cls-1 {
        fill: #8a8c8d;
      }
    </style>
  </defs>
  <g id="Group_552" data-name="Group 552" transform="translate(-755 -213.721)">
    <g id="Component_3_5" data-name="Component 3 – 5" transform="translate(755 213.721)">
      <g id="Group_395" data-name="Group 395">
        <g id="Group_394" data-name="Group 394">
          <g id="Group_346" data-name="Group 346">
            <path id="Path_1531" data-name="Path 1531" class="cls-1" d="M206.671,270.991a26,26,0,1,0,26,26v0a26,26,0,0,0-26-26Zm0,47.314a21.314,21.314,0,1,1,21.314-21.314h0A21.312,21.312,0,0,1,206.671,318.3Z" transform="translate(-180.671 -270.991)"/>
          </g>
        </g>
      </g>
      <g id="Group_396" data-name="Group 396" transform="translate(20.252 2.813)">
        <path id="Path_1670" data-name="Path 1670" class="cls-1" d="M5.125-7.247Q2.6-22.422,2.6-23.623a3.072,3.072,0,0,1,.971-2.362,3.14,3.14,0,0,1,2.192-.9A2.957,2.957,0,0,1,8-25.925a3.18,3.18,0,0,1,.911,2.262q0,1.241-2.522,16.416ZM8.548-2.4A2.7,2.7,0,0,1,7.728-.42,2.677,2.677,0,0,1,5.766.4,2.7,2.7,0,0,1,3.784-.42,2.7,2.7,0,0,1,2.963-2.4a2.677,2.677,0,0,1,.821-1.962,2.7,2.7,0,0,1,1.982-.821,2.677,2.677,0,0,1,1.962.821A2.677,2.677,0,0,1,8.548-2.4Z" transform="translate(-0.252 34.638)"/>
      </g>
    </g>
  </g>
</svg>
