<?xml version="1.0" encoding="utf-8"?>
<!-- Generator: Adobe Illustrator 22.1.0, SVG Export Plug-In . SVG Version: 6.00 Build 0)  -->
<svg version="1.1" id="Layer_1" xmlns="http://www.w3.org/2000/svg" xmlns:xlink="http://www.w3.org/1999/xlink" x="0px" y="0px"
	 viewBox="0 0 74 80" style="enable-background:new 0 0 74 80;" xml:space="preserve">
<style type="text/css">
	.st0{fill:#4D4D4D;}
	.st1{fill:#FFFFFF;}
	.st2{fill:#E2E7E9;}
	.st3{fill:none;}
	.st4{enable-background:new    ;}
</style>
<g id="Group_1247" transform="translate(4.904 7.861)">
	<g id="Group_1230" transform="translate(-37 1)">
		<g id="Group_1050" transform="translate(43.096 -8.861)">
			<g id="Group_1048" transform="translate(0 0.08)">
				<path id="Path_258" class="st0" d="M25.7,58.1c0,0,26.4-11.2,26-49.7C49.3,6.2,27-8.9,0.4,7.7C0.4,8.8-5.2,39.6,25.7,58.1z"/>
				<path id="Path_259" class="st1" d="M25.7,55.2c0,0,24.1-10.2,23.7-45.4c-2.2-2-22.6-15.7-46.8-0.6C2.6,10.3-2.4,38.4,25.7,55.2z
					"/>
			</g>
			<path id="Path_260" class="st0" d="M26.4,43l11-3.2l-0.3-0.5L25.9,43H26.4z"/>
			<path id="Path_261" class="st0" d="M37.2,39.3l-11,3.2l0.3,0.5l11.3-3.7L37.2,39.3z"/>
			<path id="Path_262" class="st0" d="M41.9,39.5l2.1-1v-0.7l-1.7,0.9L41.9,39.5z"/>
			<path id="Path_263" class="st2" d="M2.1,8.3c-4.2,16.1,6.2,31.1,6.2,31.1l1.2,0.1c0-0.1,0-0.1,0.1-0.2c-0.5-0.6-0.5-1.4,0.1-1.9
				c0.2-0.2,0.6-0.4,0.9-0.4c0.2,0,0.3,0,0.5,0.1c0.1,0,0.3,0.1,0.4,0.2c0.5,0.4,1,0.8,1.4,1.3c0.1,0.1,0.2,0.2,0.3,0.3
				c0,0,0.2,0.1,0.2,0.2c0.1,0,0.1,0.1,0.2,0.1c0.1,0,0.2,0.1,0.4,0.1c0.4,0.1,0.8,0.4,0.9,0.8l0.7,0.1l1.4-13.4l-2.5-2.6l0.3-3.8
				l1.3-0.1l-0.5,2.6l2.8-0.8l0.1-3.1l2.2-0.4l-0.3,1.9l0.7,0.6l1.7-0.6l0-2.9l1.5-0.5l3.4,0.5l-0.2,2.5l2.9,1l-0.1-0.5l2,0.7
				l-0.1,0.4l2.3,0.5l0-0.1l1,0.3l0.3-2.3l0.8,0.3l0.5,3.8l-8.9-3.1l-2.4,0.9l8.4,4.7l1.6,11.7l3.4,2.1l2.7-1.7c0,0,0.1,0,0.3,0.1
				c0.1-0.1,0.2-0.3,0.3-0.4c0.2-0.2,0.5-0.3,0.8-0.4c0,0,0.1,0,0.1,0l0.1,0c0.2-0.4,0.5-0.7,0.8-1c0.3-0.3,0.6-0.4,1-0.4
				c4.1-9.1,5.3-23.9,5.3-26.3C26.9-7.2,3.4,7.4,2.1,8.3z"/>
			<g id="Group_1049" transform="translate(0.03)">
				<path id="Path_264" class="st3" d="M10.1,41.5l1.2-1.9l1.6,2.6l2-1.8l-4.7-3.6L10.1,41.5z"/>
				<path id="Path_265" class="st3" d="M23.4,20.3l-3.3,1.1v-2.2l-1.6,0.3V22l-3.3,0.9l-0.1-2.2l-0.3,0.1l-0.4,3.1l0.3,0.4l8.3-2
					l-7,3l1,1.4l-1.4,13.3l0,0c0.3-0.3,0.8-0.4,1.2-0.5c0.5-0.4,1-0.9,1.4-1.4l2.2,0.9l4.3-4.8l0.1-16.6L23.6,18L23.4,20.3z"/>
				<path id="Path_266" class="st3" d="M41,43.4c-0.1-0.4-0.2-0.7-0.4-1.1l-0.6,1.1L41,43.4z"/>
				<path id="Path_267" class="st3" d="M2.6,9.4c-1.4,10,0.7,20.3,5.9,28.9c0.9-1,1.8-2.1,1.8-2.1v0.2l4.5,3.1l1.4-12.8l-2.4-2.2
					l0.7-4.1l2-0.6V22l1.7-0.5V19l2.8-0.8v2.4l1.8-0.7v-2.4l2-0.7V7.3h0.9v1c0.8-0.2,1.7-0.2,2.6-0.1v0.8c0,0,2,1.1,4.7-1.2
					c-0.3,0.8-1,3.9-4.9,4.2h-0.8l-1.2,0.6c0,0-0.2,3.8-0.1,4.1s2,0.9,2,0.9v2.2l2.3,0.7L30,18.3L33,19v2.4l1.8,0.7v-2.4l2,0.6
					l0.6,3.9l-10-2.3l8.5,3.9l-1.1,0.8l1.4,11.5l3.5,1.7l3.1-1.4l-0.5,0.9l-2.5,1.2l-3.1-1l0.5-0.3L34.6,38l-2.2,1.2L25.6,34
					l-0.3,6.5l1.7-2.4l2.3,3.5L29.2,42L26.4,43c0,0-0.3,0.4,0.7,0.3s6.6-1.5,6.6-1.5l-1.6,1L40,42l0.7,0.3c0,0,9.5-11.6,8.8-32.3
					C25.2-6.8,2.6,9.4,2.6,9.4z"/>
				<path id="Path_268" class="st0" d="M51.7,8.4c0,0-23.1-18.5-51.3-0.7c0,0-2.8,18.8,7,32.8c0.5-0.5,0.8-1.1,1-1.7
					c0.1,1.1,1.1,3.2,2.1,4.8l-0.8,0l1.6,1.4c0.3,0.6,0.6,0.9,0.6,0.9l0.5,0l13.3,11.4l13.4-12h0.1l0-0.1l1.9-1.7
					c0.1,0.4,0.2,0.8,0.2,1.3C52.7,30.5,51.7,8.4,51.7,8.4z M13,42.2l-1.6-2.6l-1.2,1.9l0.1-4.6l4.7,3.6L13,42.2z M24.6,34.3
					l-4.3,4.8l-2.2-0.9c-0.4,0.5-0.9,0.9-1.4,1.4c-0.4,0-0.8,0.2-1.2,0.5l0,0l1.4-13.3l-1-1.4l7-3l-8.3,2l-0.3-0.4l0.4-3.1l0.3-0.1
					l0.1,2.2l3.3-0.9v-2.4l1.6-0.3v2.2l3.3-1.1l0.2-2.4l1.1-0.3L24.6,34.3z M40.6,42.3c0.1,0.4,0.3,0.7,0.4,1.1l-0.9,0L40.6,42.3
					L39.9,42l-7.9,0.9l1.6-1c0,0-5.7,1.4-6.6,1.5S26.4,43,26.4,43l2.8-0.9l0.1-0.4l-2.3-3.5l-1.7,2.4l0.3-6.5l6.7,5.2l2.2-1.2
					l2.5,1.2l-0.5,0.3l3.1,1l2.5-1.2l0.5-0.9l-3.1,1.4l-3.5-1.7l-1.4-11.5l1.1-0.8L27.3,22l10,2.3l-0.6-3.9l-2-0.6v2.4L33,21.4v-2.4
					l-2.9-0.7l0.1,2.4l-2.3-0.7v-2.2c0,0-1.9-0.6-2-0.9s0.1-4.1,0.1-4.1l1.2-0.6h0.8c3.9-0.3,4.5-3.4,4.9-4.2
					c-2.7,2.3-4.7,1.2-4.7,1.2V8.3c-0.9-0.2-1.7-0.1-2.6,0.1v-1h-0.9v9.5l-2,0.7v2.4l-1.8,0.7v-2.4l-2.8,0.8v2.4L16.4,22v-2.2
					l-2,0.6l-0.7,4.1l2.4,2.2l-1.4,12.8l-4.5-3.1v-0.2c0,0-0.8,1.1-1.8,2.1C3.3,29.6,1.2,19.4,2.6,9.4c0,0,22.6-16.2,46.8,0.6
					C50.1,30.6,40.6,42.3,40.6,42.3L40.6,42.3z"/>
			</g>
			<path id="Path_269" class="st0" d="M7.3,39.2L9,39.8l0.3-1.2l-1.6-0.3L7.3,39.2z"/>
			<path id="Path_270" class="st1" d="M14.8,42.8l3.7-3.5l-0.4,2.5l4.2-2.2l-1.9,3.2l-2.8,0.9L14.8,42.8z"/>
		</g>
		<g class="st4">
			<path class="st0" d="M43.9,53.9v0.3c-0.1,0-0.2,0-0.3,0.1c-0.5,0.1-0.8,0.2-0.8,0.2c-0.1,0.1-0.1,0.2-0.1,0.5v0.2l0,2.2l0,3.1
				c0,0.3,0,0.4,0.1,0.5c0.1,0.1,0.3,0.1,0.8,0.2c0.1,0,0.2,0,0.4,0.1v0.3c-0.6,0-1.1-0.1-1.7-0.1c-0.6,0-1.2,0-1.8,0.1v-0.3
				c0.1,0,0.2,0,0.2-0.1c0.5-0.1,0.8-0.2,0.9-0.2c0.1-0.1,0.1-0.2,0.1-0.5l0-0.3l0-2c0-2,0-3.1,0-3.4c0-0.1,0-0.2-0.1-0.3
				c-0.1-0.1-0.3-0.1-0.8-0.2c-0.1,0-0.2,0-0.3-0.1v-0.3c0.8,0,1.4,0.1,1.8,0.1C42.7,53.9,43.2,53.9,43.9,53.9z"/>
			<path class="st0" d="M44.3,54.2v-0.3c0.9,0,1.7,0.1,2.3,0.1c0.3,0,0.6,0,0.9,0c0.4,0,0.6,0,0.8,0c0.7,0,1.2,0.2,1.6,0.5
				c0.4,0.3,0.5,0.8,0.5,1.3c0,0.4-0.1,0.7-0.2,1c-0.2,0.3-0.4,0.5-0.7,0.7c-0.2,0.1-0.5,0.3-0.9,0.4l1.8,2.3
				c0.2,0.3,0.4,0.5,0.4,0.5c0.1,0.1,0.2,0.1,0.3,0.2c0.2,0.1,0.5,0.2,1,0.3v0.3c-0.6,0-1-0.1-1.2-0.1c-0.3,0-0.6,0-0.9,0.1
				c-0.2-0.3-0.4-0.6-0.7-1s-0.4-0.6-0.5-0.7c0,0-0.1-0.1-0.1-0.1L47.5,58c-0.3,0-0.6,0-1-0.1l0,2.7c0,0.1,0,0.2,0.1,0.2
				c0.1,0.1,0.4,0.1,0.8,0.2c0.1,0,0.2,0,0.3,0.1v0.3c-0.6,0-1.2-0.1-1.7-0.1c-0.5,0-1.1,0-1.8,0.1v-0.3l0.2,0
				c0.5-0.1,0.8-0.2,0.9-0.2c0.1-0.1,0.1-0.2,0.1-0.3c0-0.1,0-1,0-2.8l0-2.5c0-0.4,0-0.6,0-0.7c0-0.1-0.1-0.1-0.1-0.1
				c-0.2-0.1-0.5-0.2-0.8-0.2C44.5,54.2,44.4,54.2,44.3,54.2z M46.6,57.5c0.4,0,0.7,0.1,0.9,0.1c0.7,0,1.1-0.1,1.4-0.4
				c0.3-0.3,0.5-0.7,0.5-1.2c0-0.5-0.1-0.8-0.4-1.1c-0.3-0.3-0.7-0.4-1.2-0.4c-0.2,0-0.6,0-1.1,0.1L46.6,57.5z"/>
			<path class="st0" d="M52,57.7c0-1.2,0.4-2.1,1.1-2.9c0.8-0.8,1.7-1.1,2.9-1.1c1.1,0,2,0.3,2.6,1s1,1.6,1,2.8
				c0,1.3-0.4,2.3-1.1,3.1s-1.7,1.1-2.9,1.1c-1.1,0-2-0.3-2.7-1C52.3,60,52,59,52,57.7z M53.2,57.6c0,1.2,0.3,2.1,0.8,2.7
				c0.5,0.6,1.2,0.9,2,0.9c0.5,0,1-0.1,1.4-0.4s0.7-0.7,0.9-1.2c0.2-0.5,0.3-1.1,0.3-1.8c0-0.8-0.1-1.5-0.4-2
				c-0.3-0.5-0.6-0.9-1-1.1c-0.4-0.2-0.8-0.3-1.3-0.3c-0.5,0-1,0.1-1.4,0.4s-0.7,0.7-0.9,1.2C53.3,56.4,53.2,57,53.2,57.6z"/>
			<path class="st0" d="M60.2,54.2v-0.3c0.5,0,0.8,0.1,1.1,0.1c0.2,0,0.6,0,1.1-0.1l1.5,1.9c0.1,0.2,1.2,1.5,3.2,3.9
				c0-0.5,0-0.9,0-1.1c0-0.5,0-1.5,0-2.9c0-0.7,0-1-0.1-1.1c0-0.1-0.1-0.1-0.1-0.2c-0.1,0-0.3-0.1-0.7-0.2c-0.1,0-0.1,0-0.3-0.1
				v-0.3c0.6,0,1.1,0.1,1.5,0.1c0.4,0,0.9,0,1.5-0.1v0.3c-0.1,0-0.2,0-0.2,0c-0.5,0.1-0.7,0.2-0.8,0.2c0,0-0.1,0.1-0.1,0.1
				c0,0.1-0.1,0.2-0.1,0.3c0,0.1,0,0.6,0,1.5c0,0.9,0,1.8,0,2.6c0,1,0,1.8,0.1,2.5l-0.3,0.2l-2.2-2.8l-2.9-3.5l0,3.2
				c0,1.4,0,2.1,0.1,2.2c0,0.1,0,0.1,0.1,0.2c0.1,0.1,0.3,0.1,0.8,0.2c0.1,0,0.1,0,0.2,0v0.3c-0.5,0-1-0.1-1.4-0.1
				c-0.3,0-0.9,0-1.6,0.1v-0.3c0.1,0,0.2-0.1,0.3-0.1c0.4-0.1,0.7-0.1,0.7-0.2c0,0,0.1-0.1,0.1-0.2c0-0.2,0.1-0.8,0.1-1.9
				c0-1.5,0-2.4,0-2.7c0-0.9,0-1.4,0-1.5c0-0.1-0.1-0.1-0.1-0.2c-0.1,0-0.4-0.1-1-0.2C60.4,54.2,60.3,54.2,60.2,54.2z"/>
			<path class="st0" d="M69.2,54.2v-0.3c0.6,0,1.1,0.1,1.4,0.1c0.4,0,0.7,0,1.1-0.1c0.1,0.4,0.3,0.7,0.4,0.9c0.1,0.3,0.6,1.3,1.4,3
				c0.3,0.7,0.7,1.5,1.1,2.2l2.3-4.8c0.1-0.3,0.3-0.7,0.5-1.2c0.5,0,0.8,0.1,1.1,0.1c0.2,0,0.6,0,1.2-0.1v0.3c-0.1,0-0.2,0-0.2,0.1
				c-0.5,0.1-0.8,0.2-0.8,0.2c-0.1,0.1-0.1,0.3-0.1,0.5v0.1l0,1.7c0,2.1,0,3.4,0,3.9c0,0.1,0,0.2,0.1,0.2c0.1,0,0.4,0.1,0.9,0.2
				c0,0,0.1,0,0.2,0v0.3c-0.6,0-1.2-0.1-1.7-0.1c-0.5,0-1.1,0-1.8,0.1v-0.3c0.1,0,0.2-0.1,0.3-0.1c0.4-0.1,0.7-0.1,0.7-0.2
				c0.1,0,0.1-0.1,0.1-0.1c0-0.1,0-0.4,0-0.9v-4.7c-0.3,0.6-1.1,2.2-2.2,4.7c-0.3,0.7-0.5,1.2-0.7,1.6h-0.3
				c-0.8-1.8-1.8-3.8-2.9-6.2l0.1,5c0,0.4,0,0.6,0.1,0.7s0.3,0.1,0.8,0.2c0.1,0,0.1,0,0.2,0.1v0.3c-0.6,0-1.1-0.1-1.5-0.1
				s-0.9,0-1.5,0.1v-0.3c0.1,0,0.2,0,0.2-0.1c0.5-0.1,0.7-0.2,0.8-0.2c0.1-0.1,0.1-0.3,0.1-0.7l0-1.2c0-1.1,0-2.2,0-3.2l0-0.7
				c0-0.3,0-0.4,0-0.5c0-0.1-0.1-0.1-0.2-0.1c-0.1-0.1-0.4-0.1-0.9-0.2C69.4,54.2,69.3,54.2,69.2,54.2z"/>
			<path class="st0" d="M83.8,53.7h0.3c0.5,1.2,1.1,2.7,1.8,4.2l1.3,2.7c0.1,0.1,0.1,0.2,0.2,0.2c0,0,0.3,0.1,0.8,0.3v0.3
				c-0.7,0-1.1-0.1-1.4-0.1c-0.3,0-0.9,0-1.6,0.1v-0.3c0.4-0.1,0.7-0.2,0.8-0.2c0.1-0.1,0.1-0.1,0.1-0.2c0-0.1,0-0.2-0.1-0.4
				l-0.5-1.3c-0.8,0-1.3,0-1.7,0l-1.5,0l-0.6,1.4c-0.1,0.2-0.1,0.4-0.1,0.4c0,0,0,0.1,0.1,0.1c0,0,0.3,0.1,0.6,0.2c0,0,0.1,0,0.2,0
				v0.3c-0.6,0-1-0.1-1.3-0.1c-0.3,0-0.7,0-1.2,0.1v-0.3c0.3-0.1,0.6-0.2,0.7-0.2c0.1-0.1,0.2-0.2,0.3-0.3c0.2-0.4,0.7-1.5,1.6-3.4
				L83.8,53.7z M82.4,58.5c0.5,0,0.9,0,1.1,0c0.1,0,0.6,0,1.6,0l-1.4-3.2L82.4,58.5z"/>
			<path class="st0" d="M88.6,54.2v-0.3c0.6,0,1.1,0.1,1.5,0.1c0.5,0,1.1,0,1.8-0.1v0.3c-0.4,0.1-0.7,0.2-0.8,0.2
				c0,0-0.1,0.1-0.1,0.1c0,0.1,0.1,0.2,0.2,0.4c0.5,0.8,0.9,1.4,1.3,1.9c0.6-0.8,1.1-1.4,1.5-2.1c0.1-0.1,0.1-0.2,0.1-0.2
				c0,0,0-0.1-0.1-0.1c0,0-0.3-0.1-0.7-0.2v-0.3c0.6,0,1.1,0.1,1.4,0.1c0.4,0,0.8,0,1.3-0.1v0.3c-0.5,0.1-0.8,0.2-0.9,0.3
				c-0.2,0.1-0.4,0.4-0.7,0.8c-0.6,0.8-1.2,1.5-1.6,2.1c0.3,0.5,0.7,1.1,1.2,1.8l1.1,1.6c0.1,0.1,0.1,0.1,0.2,0.2
				c0.1,0.1,0.4,0.2,0.8,0.3v0.3c-0.6,0-1.1-0.1-1.5-0.1c-0.4,0-0.9,0-1.7,0.1v-0.3c0.5-0.1,0.7-0.2,0.8-0.2c0,0,0.1-0.1,0.1-0.1
				c0-0.1-0.1-0.2-0.2-0.4c-0.5-0.8-1-1.5-1.5-2.2c-0.4,0.5-1,1.3-1.6,2.2c-0.1,0.2-0.2,0.3-0.2,0.4c0,0.1,0,0.1,0.1,0.2
				s0.2,0.1,0.6,0.2c0,0,0.1,0,0.2,0v0.3c-0.5,0-1-0.1-1.5-0.1c-0.4,0-0.9,0-1.2,0.1v-0.3c0.4-0.1,0.7-0.2,0.8-0.3
				c0.2-0.1,0.4-0.4,0.9-1c0.8-1,1.3-1.7,1.6-2.2c-0.3-0.5-0.9-1.3-1.6-2.4c-0.3-0.4-0.5-0.7-0.7-0.8C89.5,54.5,89.1,54.3,88.6,54.2
				z"/>
		</g>
		<g class="st4">
			<path class="st0" d="M35.5,70.1C35.5,70.1,35.5,70.1,35.5,70.1C35.5,70.1,35.5,70.1,35.5,70.1c-0.5,0.1-0.9,0.1-1.1,0.1
				c-0.1,0-0.1,0-0.1,0c0,0,0-0.1,0.1-0.1c0,0,0.1-0.1,0.1-0.1s0-0.1-0.1-0.2c-0.2-0.2-0.6-0.6-1.2-1.1v1.2c0,0.1,0.1,0.2,0.3,0.2
				c0.1,0,0.1,0.1,0.1,0.1c0,0,0,0.1,0,0.1s-0.1,0-0.1,0c-0.3,0-0.6,0-1,0c-0.1,0-0.1,0-0.1-0.1c0,0,0-0.1,0.1-0.1
				c0.2,0,0.2-0.1,0.2-0.3v-2.3c0-0.2-0.1-0.2-0.3-0.3c-0.1,0-0.1,0-0.1,0c0,0,0,0,0-0.1c0,0,0-0.1,0-0.1c0,0,0.1,0,0.1,0
				c0.4,0,0.7,0,1,0c0.1,0,0.1,0,0.1,0.1c0,0,0,0.1-0.1,0.1c-0.1,0-0.2,0.1-0.2,0.1c0,0-0.1,0.1-0.1,0.2v1.1c0.5-0.4,0.8-0.7,1.1-1
				c0.1-0.1,0.1-0.1,0.1-0.2s0-0.1-0.1-0.1c-0.1,0-0.1,0-0.1,0c0,0,0,0,0-0.1c0,0,0-0.1,0-0.1c0,0,0.1,0,0.1,0c0.3,0,0.6,0,0.9,0
				c0,0,0.1,0,0.1,0s0,0,0,0.1c0,0,0,0.1,0,0.1s-0.1,0-0.1,0c-0.2,0-0.3,0.2-0.6,0.4c-0.2,0.1-0.5,0.4-1.1,0.9
				c0.6,0.6,1.1,1,1.4,1.3c0.1,0.1,0.3,0.2,0.5,0.3C35.5,70,35.5,70,35.5,70.1z"/>
			<path class="st0" d="M38.5,69.5c0,0.2-0.1,0.4-0.1,0.6c0,0-0.1,0-0.1,0c-0.3,0-0.6,0-1,0c-0.4,0-0.8,0-1.1,0
				c-0.1,0-0.1,0-0.1-0.1c0,0,0-0.1,0.1-0.1c0.1,0,0.2,0,0.2-0.1c0,0,0.1-0.1,0.1-0.2v-2.2c0-0.2,0-0.2,0-0.3c0,0-0.1-0.1-0.2-0.1
				C36.1,67.1,36,67,36,67c0,0,0,0,0-0.1c0,0,0.1,0,0.1,0c0.1,0,0.4,0,0.8,0c0.4,0,0.8,0,1.1,0c0.1,0,0.2,0,0.2,0c0,0,0,0,0,0
				c0,0.2,0,0.3,0,0.5c0,0.1,0,0.1-0.1,0.1c0,0-0.1,0-0.1-0.1c0-0.1-0.1-0.2-0.1-0.2c-0.1-0.1-0.1-0.1-0.2-0.1c-0.1,0-0.4,0-0.8,0
				c-0.1,0-0.1,0-0.1,0c0,0,0,0,0,0.1v1c0,0,0,0.1,0.1,0.1c0.1,0,0.4,0,0.6,0c0,0,0.1,0,0.1-0.1c0,0,0-0.1,0.1-0.2
				c0-0.1,0.1-0.1,0.1-0.1c0.1,0,0.1,0,0.1,0.1c0,0.2-0.1,0.5,0,0.9c0,0,0,0.1-0.1,0.1c0,0-0.1,0-0.1-0.1c0-0.1,0-0.2-0.1-0.2
				c0,0-0.1-0.1-0.1-0.1c-0.1,0-0.3,0-0.6,0c0,0,0,0,0,0v1.1c0,0.2,0.1,0.2,0.3,0.3c0,0,0.2,0,0.5,0c0.4,0,0.7-0.1,0.8-0.4
				C38.3,69.4,38.4,69.4,38.5,69.5C38.5,69.5,38.5,69.5,38.5,69.5z"/>
			<path class="st0" d="M41.6,69.5c0,0.2-0.1,0.4-0.1,0.6c0,0-0.1,0-0.1,0c-0.3,0-0.6,0-1,0c-0.4,0-0.8,0-1.1,0
				c-0.1,0-0.1,0-0.1-0.1c0,0,0-0.1,0.1-0.1c0.1,0,0.2,0,0.2-0.1c0,0,0.1-0.1,0.1-0.2v-2.2c0-0.2,0-0.2,0-0.3c0,0-0.1-0.1-0.2-0.1
				c-0.1,0-0.1-0.1-0.1-0.1c0,0,0,0,0-0.1c0,0,0.1,0,0.1,0c0.1,0,0.4,0,0.8,0c0.4,0,0.8,0,1.1,0c0.1,0,0.2,0,0.2,0c0,0,0,0,0,0
				c0,0.2,0,0.3,0,0.5c0,0.1,0,0.1-0.1,0.1c0,0-0.1,0-0.1-0.1c0-0.1-0.1-0.2-0.1-0.2c-0.1-0.1-0.1-0.1-0.2-0.1c-0.1,0-0.4,0-0.8,0
				c-0.1,0-0.1,0-0.1,0c0,0,0,0,0,0.1v1c0,0,0,0.1,0.1,0.1c0.1,0,0.4,0,0.6,0c0,0,0.1,0,0.1-0.1c0,0,0-0.1,0.1-0.2
				c0-0.1,0.1-0.1,0.1-0.1C41,68,41,68,41,68c0,0.2-0.1,0.5,0,0.9c0,0,0,0.1-0.1,0.1c0,0-0.1,0-0.1-0.1c0-0.1,0-0.2-0.1-0.2
				c0,0-0.1-0.1-0.1-0.1c-0.1,0-0.3,0-0.6,0c0,0,0,0,0,0v1.1c0,0.2,0.1,0.2,0.3,0.3c0,0,0.2,0,0.5,0c0.4,0,0.7-0.1,0.8-0.4
				C41.4,69.4,41.5,69.4,41.6,69.5C41.6,69.5,41.6,69.5,41.6,69.5z"/>
			<path class="st0" d="M44.6,67.8c0,0.3-0.1,0.6-0.4,0.7c-0.2,0.2-0.6,0.3-0.9,0.3c0,0-0.1,0-0.2,0c-0.1,0-0.1,0-0.1,0
				c0,0,0,0,0,0.1v0.9c0,0.1,0,0.1,0,0.1c0,0,0.1,0,0.3,0.1c0.1,0,0.1,0,0.1,0.1c0,0,0,0.1,0,0.1s-0.1,0-0.1,0c-0.3,0-0.6,0-1,0
				c-0.1,0-0.1,0-0.1-0.1c0,0,0-0.1,0.1-0.1c0.2,0,0.2-0.1,0.2-0.3v-2.3c0-0.2-0.1-0.3-0.3-0.3c-0.1,0-0.1,0-0.1-0.1
				c0-0.1,0-0.1,0-0.1c0,0,0.1,0,0.1,0c0.1,0,0.2,0,0.3,0c0.1,0,0.2,0,0.4,0c0.2,0,0.3,0,0.5,0c0.3,0,0.6,0.1,0.8,0.2
				C44.5,67.3,44.6,67.5,44.6,67.8z M44.1,67.9c0-0.3-0.1-0.5-0.2-0.6c-0.1-0.1-0.3-0.2-0.6-0.2c-0.1,0-0.2,0-0.2,0.1
				S43,67.3,43,67.4v1.2c0,0,0.1,0.1,0.3,0.1c0.3,0,0.5-0.1,0.6-0.2C44.1,68.3,44.1,68.1,44.1,67.9z"/>
		</g>
		<g class="st4">
			<path class="st0" d="M51.3,67c0,0.1-0.1,0.1-0.2,0.1c-0.1,0-0.3,0.1-0.4,0.3c-0.3,0.4-0.5,0.6-0.5,0.7c-0.2,0.2-0.3,0.4-0.4,0.6
				v0.9c0,0.1,0,0.2,0.1,0.2c0,0,0.1,0.1,0.2,0.1c0.1,0,0.1,0.1,0.1,0.1c0,0,0,0.1-0.1,0.1c0,0,0,0-0.1,0c-0.3,0-0.6,0-1,0
				c-0.1,0-0.2,0-0.2-0.1c0-0.1,0-0.1,0.1-0.1c0.1,0,0.2-0.1,0.3-0.1c0-0.1,0.1-0.1,0.1-0.3v-0.7c-0.2-0.4-0.6-1-1.1-1.6
				c-0.1-0.2-0.3-0.2-0.4-0.3c-0.1,0-0.1,0-0.1-0.1c0-0.1,0-0.1,0.1-0.1c0.3,0,0.7,0,1.1,0c0.1,0,0.1,0,0.1,0c0,0,0,0,0,0.1
				c0,0,0,0.1-0.1,0.1c-0.1,0.1-0.2,0.1-0.2,0.2c0,0,0,0.1,0.1,0.1c0.2,0.3,0.5,0.7,0.8,1.2c0,0,0,0,0,0c0,0,0,0,0,0
				c0.1-0.1,0.2-0.3,0.4-0.5c0.2-0.2,0.3-0.4,0.4-0.6c0-0.1,0.1-0.1,0.1-0.2c0-0.1-0.1-0.2-0.2-0.2c-0.1,0-0.1-0.1-0.1-0.1
				c0-0.1,0.1-0.1,0.2-0.1c0.3,0,0.6,0,0.9,0C51.3,66.9,51.3,66.9,51.3,67z"/>
			<path class="st0" d="M55.3,68.5c0,0.5-0.2,0.9-0.5,1.2c-0.3,0.3-0.8,0.5-1.2,0.5c-0.5,0-0.9-0.2-1.3-0.5
				c-0.3-0.3-0.5-0.7-0.5-1.2c0-0.5,0.2-0.9,0.5-1.2c0.3-0.3,0.8-0.5,1.3-0.5c0.5,0,0.9,0.2,1.3,0.5C55.1,67.6,55.3,68,55.3,68.5z
				 M54.8,68.6c0-0.5-0.1-0.8-0.4-1.1c-0.2-0.3-0.6-0.4-1-0.4c-0.3,0-0.6,0.1-0.8,0.4c-0.2,0.3-0.3,0.6-0.3,1c0,0.5,0.1,0.9,0.4,1.1
				c0.2,0.3,0.6,0.4,1,0.4c0.3,0,0.6-0.1,0.8-0.4C54.7,69.4,54.8,69,54.8,68.6z"/>
			<path class="st0" d="M59.4,67c0,0,0,0.1-0.1,0.1c-0.1,0-0.2,0.1-0.2,0.1c0,0-0.1,0.1-0.1,0.2v1.4c0,0.4-0.1,0.8-0.3,1
				c-0.2,0.3-0.6,0.4-1,0.4c-1,0-1.4-0.5-1.4-1.4v-1.5c0-0.2-0.1-0.2-0.3-0.3c-0.1,0-0.1,0-0.1,0c0,0,0,0,0-0.1c0-0.1,0-0.1,0-0.1
				c0,0,0,0,0.1,0c0.4,0,0.8,0,1,0c0,0,0.1,0,0.1,0c0,0,0,0,0,0.1c0,0,0,0.1-0.1,0.1c-0.1,0-0.2,0.1-0.2,0.1c-0.1,0-0.1,0.1-0.1,0.2
				v1.4c0,0.4,0.1,0.7,0.3,0.9s0.5,0.3,0.8,0.3c0.7,0,1-0.4,1-1.1v-1.4c0-0.1,0-0.2-0.1-0.2c0,0-0.1-0.1-0.2-0.1
				c-0.1,0-0.1,0-0.1-0.1c0-0.1,0-0.1,0-0.1c0,0,0,0,0.1,0c0.5,0,0.8,0,0.9,0C59.4,66.9,59.4,66.9,59.4,67C59.4,67,59.4,67,59.4,67z
				"/>
			<path class="st0" d="M62.9,70.1C62.9,70.2,62.8,70.2,62.9,70.1c-0.7,0.1-1.2-0.4-1.8-1.4c-0.2,0-0.3,0-0.3,0v1
				c0,0.1,0,0.1,0.1,0.2s0.1,0,0.2,0.1c0.1,0,0.1,0,0.1,0.1c0,0,0,0.1,0,0.1s-0.1,0-0.1,0c-0.3,0-0.6,0-1,0c-0.1,0-0.1,0-0.1-0.1
				c0,0,0-0.1,0.1-0.1c0.2,0,0.2-0.1,0.2-0.3v-2.3c0-0.2-0.1-0.3-0.3-0.3c-0.1,0-0.1,0-0.1-0.1c0-0.1,0-0.1,0.1-0.1c0,0,0,0,0.1,0
				c0.1,0,0.2,0,0.3,0c0,0,0.2,0,0.3,0c0.2,0,0.4,0,0.5,0c0.3,0,0.6,0.1,0.8,0.2c0.2,0.1,0.3,0.3,0.3,0.6c0,0.4-0.3,0.7-0.8,0.9
				c0.2,0.4,0.4,0.7,0.6,1C62.4,69.9,62.6,70,62.9,70.1C62.8,70.1,62.9,70.1,62.9,70.1z M61.9,67.8c0-0.2-0.1-0.4-0.2-0.5
				c-0.1-0.1-0.3-0.2-0.6-0.2c-0.1,0-0.2,0-0.2,0.1s-0.1,0.1-0.1,0.2v1.2c0.4,0,0.7-0.1,0.8-0.2C61.8,68.2,61.9,68,61.9,67.8z"/>
		</g>
		<g class="st4">
			<path class="st0" d="M68.3,67c0,0.1,0,0.3-0.1,0.5c0,0.1,0,0.1-0.1,0.1s-0.1,0-0.1-0.1c0-0.1-0.1-0.2-0.1-0.2
				c-0.1-0.1-0.1-0.1-0.2-0.1c-0.1,0-0.3,0-0.7,0c-0.1,0-0.1,0-0.2,0c0,0,0,0,0,0.1v1.1c0,0,0,0.1,0.1,0.1c0.1,0,0.4,0,0.6,0
				c0.1,0,0.1,0,0.1-0.1c0,0,0-0.1,0.1-0.2c0-0.1,0-0.1,0.1-0.1c0.1,0,0.1,0,0.1,0.1c0,0.2-0.1,0.5,0,0.9c0,0,0,0.1-0.1,0.1
				c0,0-0.1,0-0.1-0.1c0-0.2-0.1-0.3-0.2-0.3c-0.1,0-0.3,0-0.6,0c0,0,0,0,0,0v1.1c0,0.1,0,0.1,0.1,0.2c0,0,0.1,0,0.3,0.1
				c0.1,0,0.1,0,0.1,0.1c0,0.1-0.1,0.1-0.2,0.1c-0.4,0-0.7,0-1,0c-0.1,0-0.1,0-0.1-0.1c0,0,0-0.1,0.1-0.1c0.2,0,0.2-0.2,0.2-0.4
				v-2.1c0-0.1,0-0.2-0.1-0.2c0-0.1-0.1-0.1-0.2-0.2C66,67.1,66,67,66,67c0,0,0,0,0-0.1c0,0,0.1,0,0.1,0c0.1,0,0.3,0,0.7,0
				c0.4,0,0.8,0,1.2,0C68.2,66.9,68.3,66.9,68.3,67C68.3,67,68.3,67,68.3,67z"/>
			<path class="st0" d="M72.2,70.1C72.1,70.1,72.1,70.2,72.2,70.1C72.1,70.2,72.1,70.2,72.2,70.1c-0.3,0-0.7,0-1.1,0.1
				c-0.1,0-0.1,0-0.1,0c0,0,0-0.1,0.1-0.1c0.2-0.1,0.3-0.1,0.3-0.2c0,0,0-0.1,0-0.1c-0.1-0.3-0.2-0.5-0.3-0.7c-0.1,0-0.3,0-0.6,0
				c-0.2,0-0.4,0-0.6,0c-0.1,0.1-0.1,0.3-0.2,0.6c0,0.1,0,0.1,0,0.2c0,0.1,0,0.2,0.1,0.2c0.2,0.1,0.2,0.1,0.2,0.1
				c0,0.1-0.1,0.1-0.2,0.1c-0.3,0-0.6,0-0.8,0c-0.1,0-0.1,0-0.1-0.1c0,0,0-0.1,0.2-0.1c0.1-0.1,0.2-0.2,0.3-0.3
				c0.3-0.7,0.5-1.1,0.6-1.4c0.2-0.5,0.4-0.9,0.5-1.3c0-0.1,0.1-0.1,0.2-0.1c0,0,0.1,0,0.1,0.1c0.4,0.8,0.7,1.8,1.2,2.7
				C71.8,69.9,71.9,70,72.2,70.1C72.1,70,72.2,70.1,72.2,70.1z M70.8,68.8c-0.1-0.2-0.3-0.6-0.5-1.1c0,0,0,0,0,0c0,0,0,0,0,0
				l-0.5,1.1c0.2,0,0.4,0,0.6,0C70.5,68.8,70.6,68.8,70.8,68.8z"/>
			<path class="st0" d="M75.7,69.3c0,0.2-0.1,0.4-0.1,0.5c0,0.1-0.2,0.2-0.4,0.2c-0.2,0.1-0.5,0.1-0.8,0.1c-0.5,0-0.9-0.2-1.3-0.5
				c-0.3-0.3-0.5-0.7-0.5-1.2c0-0.5,0.2-0.9,0.5-1.2c0.3-0.3,0.8-0.5,1.2-0.5c0.3,0,0.6,0,0.9,0.1c0.2,0.1,0.3,0.1,0.3,0.2
				c0,0.1,0,0.3,0,0.6c0,0,0,0.1-0.1,0.1c-0.1,0-0.1,0-0.1-0.1c-0.1-0.3-0.2-0.5-0.3-0.6c-0.1-0.1-0.4-0.2-0.6-0.2
				c-0.4,0-0.7,0.1-0.9,0.4c-0.2,0.3-0.4,0.6-0.4,1.1c0,0.4,0.1,0.8,0.4,1.1c0.3,0.3,0.6,0.4,1,0.4c0.3,0,0.5-0.1,0.6-0.2
				c0.1-0.1,0.3-0.3,0.3-0.5c0-0.1,0.1-0.1,0.2-0.1C75.7,69.3,75.7,69.3,75.7,69.3z"/>
			<path class="st0" d="M77.7,67c0,0,0,0.1-0.1,0.1c-0.2,0.1-0.3,0.1-0.3,0.2v2.4c0,0.2,0.1,0.2,0.3,0.3c0.1,0,0.1,0,0.1,0.1
				c0,0,0,0.1,0,0.1c0,0-0.1,0-0.1,0c-0.4,0-0.8,0-1,0c-0.1,0-0.1,0-0.1,0c0,0,0,0,0-0.1c0,0,0-0.1,0.1-0.1c0.1,0,0.2-0.1,0.2-0.1
				c0.1,0,0.1-0.1,0.1-0.2v-2.4c0-0.1-0.1-0.2-0.3-0.3c-0.1,0-0.1,0-0.1-0.1c0,0,0-0.1,0-0.1c0,0,0,0,0.1,0c0.3,0,0.6,0,1,0
				C77.6,66.9,77.6,66.9,77.7,67C77.7,66.9,77.7,66.9,77.7,67z"/>
			<path class="st0" d="M80.8,69.5c-0.1,0.2-0.1,0.4-0.1,0.6c0,0-0.1,0-0.2,0c-0.3,0-0.6,0-1,0c-0.4,0-0.8,0-1.1,0c0,0-0.1,0-0.1,0
				c0,0,0,0,0-0.1c0,0,0-0.1,0.1-0.1c0.2,0,0.2-0.1,0.2-0.3v-2.3c0-0.1,0-0.2,0-0.3c0-0.1-0.1-0.1-0.2-0.2c-0.1,0-0.1-0.1-0.1-0.1
				c0,0,0-0.1,0-0.1c0,0,0.1,0,0.1,0c0.2,0,0.5,0,0.8,0c0.1,0,0.1,0,0.1,0c0,0,0.1,0,0.1,0.1c0,0,0,0.1,0,0.1c0,0,0,0-0.1,0
				c-0.1,0-0.2,0.1-0.2,0.1s0,0.1,0,0.2v2.2c0,0.1,0,0.2,0.1,0.3c0.1,0.1,0.3,0.1,0.5,0.1c0.2,0,0.4,0,0.5-0.1
				c0.1-0.1,0.2-0.2,0.3-0.3C80.6,69.4,80.6,69.4,80.8,69.5C80.7,69.5,80.8,69.5,80.8,69.5z"/>
			<path class="st0" d="M82.5,67c0,0,0,0.1-0.1,0.1c-0.2,0.1-0.3,0.1-0.3,0.2v2.4c0,0.2,0.1,0.2,0.3,0.3c0.1,0,0.1,0,0.1,0.1
				c0,0,0,0.1,0,0.1c0,0-0.1,0-0.1,0c-0.4,0-0.8,0-1,0c-0.1,0-0.1,0-0.1,0c0,0,0,0,0-0.1c0,0,0-0.1,0.1-0.1c0.1,0,0.2-0.1,0.2-0.1
				c0.1,0,0.1-0.1,0.1-0.2v-2.4c0-0.1-0.1-0.2-0.3-0.3c-0.1,0-0.1,0-0.1-0.1c0,0,0-0.1,0-0.1c0,0,0,0,0.1,0c0.3,0,0.6,0,1,0
				C82.4,66.9,82.5,66.9,82.5,67C82.5,66.9,82.5,66.9,82.5,67z"/>
			<path class="st0" d="M86.3,67.7C86.3,67.7,86.3,67.8,86.3,67.7C86.3,67.8,86.3,67.8,86.3,67.7c-0.1,0.1-0.2,0.1-0.2,0
				c-0.1-0.2-0.2-0.4-0.2-0.4c-0.1-0.1-0.4-0.1-0.7-0.1c-0.1,0-0.2,0-0.2,0c0,0,0,0,0,0v2.4c0,0.1,0,0.2,0.1,0.2
				c0,0,0.1,0.1,0.3,0.1c0.1,0,0.1,0,0.1,0c0,0,0,0,0,0.1c0,0,0,0.1-0.1,0.1c0,0,0,0-0.1,0c-0.4,0-0.8,0-1.1,0c-0.1,0-0.1,0-0.1,0
				c0,0,0,0,0-0.1c0-0.1,0-0.1,0.1-0.1c0.1,0,0.2-0.1,0.3-0.1c0.1-0.1,0.1-0.1,0.1-0.3v-2.4c0,0,0-0.1-0.1-0.1c0,0-0.1,0-0.1,0
				c-0.3,0-0.5,0.1-0.7,0.2c-0.1,0.1-0.2,0.2-0.3,0.4c0,0.1-0.1,0.1-0.1,0.1c-0.1,0-0.1,0-0.1-0.1c0.1-0.2,0.1-0.4,0.1-0.7
				c0,0,0-0.1,0.1,0c0.4,0,0.7,0,1.2,0c0.8,0,1.3,0,1.6,0c0.1,0,0.1,0,0.1,0C86.3,67.2,86.3,67.4,86.3,67.7z"/>
			<path class="st0" d="M90.2,67c0,0.1-0.1,0.1-0.2,0.1c-0.1,0-0.3,0.1-0.4,0.3c-0.3,0.4-0.5,0.6-0.5,0.7c-0.2,0.2-0.3,0.4-0.4,0.6
				v0.9c0,0.1,0,0.2,0.1,0.2c0,0,0.1,0.1,0.3,0.1c0.1,0,0.1,0.1,0.1,0.1c0,0,0,0.1-0.1,0.1c0,0,0,0-0.1,0c-0.3,0-0.6,0-1,0
				c-0.1,0-0.2,0-0.2-0.1c0-0.1,0-0.1,0.1-0.1c0.1,0,0.2-0.1,0.3-0.1c0-0.1,0.1-0.1,0.1-0.3v-0.7c-0.2-0.4-0.6-1-1.1-1.6
				c-0.1-0.2-0.3-0.2-0.4-0.3c-0.1,0-0.1,0-0.1-0.1c0-0.1,0-0.1,0.1-0.1c0.3,0,0.7,0,1.1,0c0.1,0,0.1,0,0.1,0c0,0,0,0,0,0.1
				c0,0,0,0.1-0.1,0.1c-0.1,0.1-0.2,0.1-0.2,0.2c0,0,0,0.1,0.1,0.1c0.2,0.3,0.5,0.7,0.8,1.2c0,0,0,0,0,0c0,0,0,0,0,0
				c0.1-0.1,0.2-0.3,0.4-0.5s0.3-0.4,0.4-0.6c0-0.1,0.1-0.1,0.1-0.2c0-0.1-0.1-0.2-0.2-0.2c-0.1,0-0.1-0.1-0.1-0.1
				c0-0.1,0.1-0.1,0.2-0.1c0.3,0,0.6,0,0.9,0C90.2,66.9,90.2,66.9,90.2,67z"/>
		</g>
		<g class="st4">
			<path class="st0" d="M94.1,69.3c0,0.3-0.1,0.5-0.3,0.7c-0.2,0.2-0.5,0.3-0.9,0.3c-0.5,0-0.8-0.1-0.8-0.3c0-0.1-0.1-0.2-0.2-0.4
				c0-0.1,0-0.1,0-0.1c0.1,0,0.1,0,0.2,0c0.1,0.2,0.3,0.3,0.4,0.4C92.7,70,92.8,70,93,70c0.5,0,0.7-0.2,0.7-0.5c0-0.1,0-0.3-0.1-0.4
				c-0.1-0.1-0.3-0.2-0.6-0.4c-0.4-0.2-0.6-0.4-0.8-0.5c-0.1-0.1-0.2-0.3-0.2-0.5c0-0.2,0.1-0.4,0.3-0.6c0.2-0.2,0.4-0.2,0.7-0.2
				c0.2,0,0.4,0,0.6,0.1c0.2,0,0.2,0.1,0.3,0.2c0,0.1,0.1,0.3,0.1,0.5c0,0.1,0,0.1-0.1,0.1c-0.1,0-0.1,0-0.1-0.1
				c-0.1-0.2-0.2-0.3-0.3-0.4c-0.1-0.1-0.3-0.1-0.5-0.1c-0.2,0-0.3,0-0.4,0.1c-0.1,0.1-0.1,0.2-0.1,0.3c0,0.1,0,0.3,0.1,0.4
				c0.1,0.1,0.3,0.2,0.5,0.3c0.4,0.2,0.6,0.4,0.8,0.5C94,68.9,94.1,69.1,94.1,69.3z"/>
			<path class="st0" d="M98.1,70.1C98.1,70.1,98.1,70.2,98.1,70.1C98.1,70.2,98.1,70.2,98.1,70.1c-0.3,0-0.7,0-1.1,0.1
				c-0.1,0-0.1,0-0.1,0c0,0,0-0.1,0.1-0.1c0.2-0.1,0.3-0.1,0.3-0.2c0,0,0-0.1,0-0.1c-0.1-0.3-0.2-0.5-0.3-0.7c-0.1,0-0.3,0-0.6,0
				c-0.2,0-0.4,0-0.6,0c-0.1,0.1-0.1,0.3-0.2,0.6c0,0.1,0,0.1,0,0.2c0,0.1,0.1,0.2,0.1,0.2c0.2,0.1,0.2,0.1,0.2,0.1
				c0,0.1-0.1,0.1-0.2,0.1c-0.3,0-0.6,0-0.8,0c-0.1,0-0.1,0-0.1-0.1c0,0,0-0.1,0.2-0.1c0.1-0.1,0.2-0.2,0.3-0.3
				c0.3-0.7,0.5-1.1,0.6-1.4c0.2-0.5,0.4-0.9,0.5-1.3c0-0.1,0.1-0.1,0.2-0.1c0,0,0.1,0,0.1,0.1c0.4,0.8,0.7,1.8,1.2,2.7
				C97.8,69.9,97.9,70,98.1,70.1C98.1,70,98.2,70.1,98.1,70.1z M96.8,68.8c-0.1-0.2-0.3-0.6-0.5-1.1c0,0,0,0,0,0s0,0,0,0l-0.5,1.1
				c0.2,0,0.4,0,0.6,0C96.5,68.8,96.6,68.8,96.8,68.8z"/>
			<path class="st0" d="M100.9,67c0,0.1,0,0.3-0.1,0.5c0,0.1,0,0.1-0.1,0.1c0,0-0.1,0-0.1-0.1c0-0.1-0.1-0.2-0.1-0.2
				c-0.1-0.1-0.1-0.1-0.2-0.1c-0.1,0-0.3,0-0.7,0c-0.1,0-0.1,0-0.2,0c0,0,0,0,0,0.1v1.1c0,0,0,0.1,0.1,0.1c0.1,0,0.4,0,0.6,0
				c0.1,0,0.1,0,0.1-0.1c0,0,0-0.1,0.1-0.2c0-0.1,0-0.1,0.1-0.1c0.1,0,0.1,0,0.1,0.1c0,0.2-0.1,0.5,0,0.9c0,0,0,0.1-0.1,0.1
				c0,0-0.1,0-0.1-0.1c0-0.2-0.1-0.3-0.2-0.3s-0.3,0-0.6,0c0,0,0,0,0,0v1.1c0,0.1,0,0.1,0.1,0.2c0,0,0.1,0,0.3,0.1
				c0.1,0,0.1,0,0.1,0.1c0,0.1-0.1,0.1-0.2,0.1c-0.4,0-0.7,0-1,0c-0.1,0-0.1,0-0.1-0.1c0,0,0-0.1,0.1-0.1c0.2,0,0.2-0.2,0.2-0.4
				v-2.1c0-0.1,0-0.2-0.1-0.2c0-0.1-0.1-0.1-0.2-0.2c-0.1,0-0.1-0.1-0.1-0.1c0,0,0,0,0-0.1c0,0,0.1,0,0.1,0c0.1,0,0.3,0,0.7,0
				c0.4,0,0.8,0,1.2,0C100.8,66.9,100.9,66.9,100.9,67C100.9,67,100.9,67,100.9,67z"/>
			<path class="st0" d="M103.9,69.5c0,0.2-0.1,0.4-0.1,0.6c0,0-0.1,0-0.1,0c-0.3,0-0.6,0-1,0c-0.4,0-0.8,0-1.1,0
				c-0.1,0-0.1,0-0.1-0.1c0,0,0-0.1,0.1-0.1c0.1,0,0.2,0,0.2-0.1c0,0,0.1-0.1,0.1-0.2v-2.2c0-0.2,0-0.2,0-0.3c0,0-0.1-0.1-0.2-0.1
				c-0.1,0-0.1-0.1-0.1-0.1c0,0,0,0,0-0.1c0,0,0.1,0,0.1,0c0.1,0,0.4,0,0.8,0c0.4,0,0.8,0,1.1,0c0.1,0,0.2,0,0.2,0c0,0,0,0,0,0
				c0,0.2,0,0.3,0,0.5c0,0.1,0,0.1-0.1,0.1c0,0-0.1,0-0.1-0.1c0-0.1-0.1-0.2-0.1-0.2c-0.1-0.1-0.1-0.1-0.2-0.1c-0.1,0-0.4,0-0.8,0
				c-0.1,0-0.1,0-0.1,0c0,0,0,0,0,0.1v1c0,0,0,0.1,0.1,0.1c0.1,0,0.4,0,0.6,0c0,0,0.1,0,0.1-0.1c0,0,0-0.1,0.1-0.2
				c0-0.1,0.1-0.1,0.1-0.1c0.1,0,0.1,0,0.1,0.1c0,0.2-0.1,0.5,0,0.9c0,0,0,0.1-0.1,0.1c0,0-0.1,0-0.1-0.1c0-0.1,0-0.2-0.1-0.2
				c0,0-0.1-0.1-0.1-0.1c-0.1,0-0.3,0-0.6,0c0,0,0,0,0,0v1.1c0,0.2,0.1,0.2,0.3,0.3c0,0,0.2,0,0.5,0c0.4,0,0.7-0.1,0.8-0.4
				C103.8,69.4,103.8,69.4,103.9,69.5C103.9,69.5,103.9,69.5,103.9,69.5z"/>
		</g>
	</g>
</g>
</svg>
